     1     1   -0.1877736094E+002
     1     2    0.1488559342E-002
     2     2    0.4794147045E+000
     1     3    0.4040559431E-002
     2     3    0.4090046568E+000
     3     3   -0.7367847367E+000
     1     4   -0.7845657447E-003
     2     4   -0.4434051580E+000
     3     4   -0.1426142437E+000
     4     4    0.4978808747E+000
     1     5   -0.3961396254E-002
     2     5    0.7311801997E-001
     3     5   -0.2472256222E-001
     4     5   -0.1868506194E-001
     5     5    0.7370586765E+000
     1     6    0.5211788792E-002
     2     6   -0.9620189169E-001
     3     6    0.3252770225E-001
     4     6    0.2458416955E-001
     5     6    0.6335200494E-001
     6     6    0.7018569276E+000
     1     7    0.4629508620E-002
     2     7   -0.8544350750E-001
     3     7    0.2888954990E-001
     4     7    0.2183406354E-001
     5     7   -0.2023520078E-001
     6     7    0.2662340184E-001
     7     7    0.6300606073E+000
     1     8   -0.8795945580E-002
     2     8   -0.9370460489E-002
     3     8    0.4489558537E-001
     4     8    0.4162602397E-002
     5     8    0.5523307432E+000
     6     8   -0.1693526873E-001
     7     8    0.5391847287E-002
     8     8    0.3599979135E-002
     1     9    0.1157240266E-001
     2     9    0.1232886251E-001
     3     9   -0.5906945441E-001
     4     9   -0.5476746201E-002
     5     9   -0.1693526873E-001
     6     9    0.5617411144E+000
     7     9   -0.7094040312E-002
     8     9    0.2344551739E-001
     9     9   -0.9427645827E-002
     1    10    0.1027946832E-001
     2    10    0.1095002902E-001
     3    10   -0.5246215443E-001
     4    10   -0.4864221168E-002
     5    10    0.5391847287E-002
     6    10   -0.7094040312E-002
     7    10    0.5809126033E+000
     8    10   -0.7558180989E-002
     9    10    0.9944289740E-002
    10    10   -0.3607786681E-001
     1    11   -0.1469106820E-002
     2    11    0.1349212187E-001
     3    11   -0.1537506618E-001
     4    11   -0.2695268855E-001
     5    11    0.4905069595E+000
     6    11    0.1638423729E-001
     7    11   -0.5137049995E-002
     8    11    0.2418707955E+000
     9    11   -0.9424276634E-002
    10    11    0.3006095054E-002
    11    11    0.4888663090E+000
     1    12    0.1932830945E-002
     2    12   -0.1775173837E-001
     3    12    0.2022913723E-001
     4    12    0.3546200147E-001
     5    12    0.1638423729E-001
     6    12    0.4814031910E+000
     7    12    0.6758882073E-002
     8    12   -0.9424276634E-002
     9    12    0.2471076696E+000
    10    12   -0.3955117351E-002
    11    12    0.1842203319E-001
    12    12    0.4786302118E+000
     1    13    0.1716860551E-002
     2    13   -0.1576579719E-001
     3    13    0.1796639122E-001
     4    13    0.3149604168E-001
     5    13   -0.5137049995E-002
     6    13    0.6758882073E-002
     7    13    0.4629483140E+000
     8    13    0.3006095054E-002
     9    13   -0.3955117351E-002
    10    13    0.2577826114E+000
    11    13   -0.5864087364E-002
    12    13    0.7715505738E-002
    13    13    0.4577758707E+000
     1    14    0.4049468250E-003
     2    14    0.1840545032E-001
     3    14   -0.1664738296E-001
     4    14   -0.7724461156E-002
     5    14    0.8859342572E-002
     6    14    0.2216509226E-001
     7    14   -0.3548757273E-001
     8    14   -0.2032977995E-001
     9    14   -0.1131760930E-001
    10    14    0.3144870144E-001
    11    14    0.3988801472E-002
    12    14    0.9126071996E-002
    13    14   -0.1491430210E-001
    14    14    0.1686316380E+001
     1    15    0.1266197515E-002
     2    15    0.5783588412E-001
     3    15   -0.5190910281E-001
     4    15   -0.2440638988E-001
     5    15   -0.7390687959E-001
     6    15    0.8115745002E-001
     7    15   -0.2216509226E-001
     8    15    0.5515323060E-001
     9    15   -0.5446452387E-001
    10    15    0.1131760930E-001
    11    15   -0.3083514003E-001
    12    15    0.3373489252E-001
    13    15   -0.9126071996E-002
    14    15   -0.3147897434E-001
    15    15    0.1665413400E+001
     1    16    0.2113064342E-003
     2    16    0.9620929122E-002
     3    16   -0.8677600489E-002
     4    16   -0.4045431846E-002
     5    16    0.7695732843E-002
     6    16   -0.6025576165E-001
     7    16    0.7613233993E-001
     8    16    0.4028892788E-002
     9    16    0.5112110642E-001
    10    16   -0.4766492189E-001
    11    16    0.3008228559E-002
    12    16   -0.2526378612E-001
    13    16    0.3156111446E-001
    14    16    0.3776013828E-002
    15    16    0.4105802427E-001
    16    16    0.1666641431E+001
     1    17    0.5329101631E-003
     2    17    0.2421604990E-001
     3    17   -0.2190289549E-001
     4    17   -0.1016320929E-001
     5    17   -0.2216509226E-001
     6    17    0.3456769235E-002
     7    17   -0.4669151471E-001
     8    17    0.1131760930E-001
     9    17    0.1404118045E-001
    10    17    0.4137755235E-001
    11    17   -0.9126071996E-002
    12    17    0.1082083526E-002
    13    17   -0.1962305413E-001
    14    17   -0.3451256828E-001
    15    17   -0.3571377542E-001
    16    17    0.2274608348E-001
    17    17    0.1667139503E+001
     1    18   -0.1069728012E-002
     2    18   -0.4880100441E-001
     3    18    0.4387345529E-001
     4    18    0.2056852458E-001
     5    18   -0.3234047700E-001
     6    18    0.1360768244E-001
     7    18   -0.1195489691E+000
     8    18    0.2999406943E-001
     9    18   -0.6887839126E-002
    10    18    0.7626946696E-001
    11    18   -0.1361018572E-001
    12    18    0.5606042950E-002
    13    18   -0.4959456879E-001
    14    18   -0.1035458096E-001
    15    18   -0.3985902846E-001
    16    18    0.7248591555E-001
    17    18   -0.3359563543E-002
    18    18    0.1618261496E+001
     1    19   -0.3501155057E-003
     2    19    0.1693678366E-001
     3    19    0.1084856646E-002
     4    19   -0.7978574134E-003
     5    19    0.1198347937E-001
     6    19    0.1613828226E-001
     7    19   -0.3043695879E-001
     8    19    0.1145497604E-001
     9    19   -0.1459599600E-003
    10    19   -0.9457316227E-002
    11    19   -0.5745615701E-002
    12    19    0.5293281840E-003
    13    19    0.4219064755E-002
    14    19   -0.1144143776E+001
    15    19   -0.9504636634E-002
    16    19    0.3726777146E-002
    17    19   -0.7464396739E-002
    18    19   -0.3819184451E-002
    19    19    0.1899479186E+001
     1    20   -0.1102042922E-002
     2    20    0.5267187063E-001
     3    20    0.3120368978E-002
     4    20   -0.2889617158E-002
     5    20   -0.5977860359E-001
     6    20    0.6347995361E-001
     7    20   -0.1613828226E-001
     8    20   -0.1216546211E-001
     9    20    0.8908593417E-002
    10    20    0.1459599600E-003
    11    20    0.4881777469E-002
    12    20   -0.3080233737E-002
    13    20   -0.5293281840E-003
    14    20   -0.9504636634E-002
    15    20   -0.1159105597E+001
    16    20    0.1225351761E-001
    17    20   -0.1179711258E-001
    18    20   -0.9128538756E-002
    19    20   -0.1976722936E-001
    20    20    0.1889406195E+001
     1    21   -0.1831392390E-003
     2    21    0.8821692607E-002
     3    21    0.5499245813E-003
     4    21   -0.4397425507E-003
     5    21    0.2767082453E-002
     6    21   -0.5093024735E-001
     7    21    0.5839734503E-001
     8    21   -0.5860894942E-002
     9    21   -0.1441198949E-001
    10    21    0.5872717503E-002
    11    21    0.3150466690E-002
    12    21    0.6274597890E-002
    13    21   -0.1568790320E-002
    14    21    0.3726777146E-002
    15    21    0.1225351761E-001
    16    21   -0.1153947062E+001
    17    21    0.7111145507E-002
    18    21    0.2195926076E-001
    19    21    0.1419807747E-002
    20    21    0.2564059265E-001
    21    21    0.1888622471E+001
     1    22   -0.4607752329E-003
     2    22    0.2228362122E-001
     3    22    0.1427334779E-002
     4    22   -0.1049700502E-002
     5    22   -0.1613828226E-001
     6    22   -0.3016210591E-002
     7    22   -0.4004620018E-001
     8    22    0.1459599600E-003
     9    22   -0.1153625605E-001
    10    22   -0.1244323246E-001
    11    22   -0.5293281840E-003
    12    22    0.6039565326E-002
    13    22    0.5551101338E-002
    14    22   -0.7464396739E-002
    15    22   -0.1179711258E-001
    16    22    0.7111145507E-002
    17    22   -0.1148291588E+001
    18    22   -0.3750577462E-002
    19    22   -0.2271905131E-001
    20    22   -0.2209674715E-001
    21    22    0.1405931854E-001
    22    22    0.1886855106E+001
     1    23    0.9297179065E-003
     2    23   -0.4454669278E-001
     3    23   -0.2685917736E-002
     4    23    0.2366915023E-002
     5    23   -0.2825026743E-001
     6    23    0.9866201709E-002
     7    23   -0.9217989985E-001
     8    23   -0.9602645007E-002
     9    23   -0.1388851721E-003
    10    23   -0.1025312511E-001
    11    23    0.4317937357E-002
    12    23    0.3346619342E-003
    13    23    0.3011174166E-002
    14    23   -0.3819184451E-002
    15    23   -0.9128538756E-002
    16    23    0.2195926076E-001
    17    23   -0.3750577462E-002
    18    23   -0.1170299904E+001
    19    23   -0.6086384207E-002
    20    23   -0.2574531337E-001
    21    23    0.4529176529E-001
    22    23   -0.9692186684E-003
    23    23    0.1858854976E+001
     1    24   -0.5845999319E-005
     2    24   -0.2089466955E-002
     3    24    0.1295481066E-002
     4    24    0.8722111864E-003
     5    24    0.2319223063E-001
     6    24    0.2756064986E-002
     7    24    0.1719485863E-002
     8    24   -0.1609807312E-001
     9    24   -0.1294979838E-002
    10    24   -0.3103346209E-002
    11    24    0.9141559599E-002
    12    24    0.1139594274E-002
    13    24    0.5736539171E-003
    14    24   -0.7094539567E-001
    15    24   -0.8955874598E-002
    16    24    0.5180735808E-002
    17    24    0.8423063763E-002
    18    24   -0.4644565129E-001
    19    24   -0.1554492648E-001
    20    24   -0.3301040626E-002
    21    24    0.2321073005E-002
    22    24    0.2479440406E-002
    23    24   -0.9296672649E-002
    24    24    0.3101720043E+001
     1    25   -0.2653874505E-003
     2    25   -0.3613610174E-001
     3    25    0.2356068208E-001
     4    25    0.1485566928E-001
     5    25    0.3923113000E-001
     6    25   -0.4582262671E-001
     7    25    0.3918155117E-001
     8    25   -0.1890540826E-001
     9    25    0.2093028097E-001
    10    25   -0.2223016488E-001
    11    25    0.1560603322E-001
    12    25   -0.1824502624E-001
    13    25    0.1550695549E-001
    14    25    0.6786493673E-001
    15    25    0.2316493814E-001
    16    25   -0.1672941841E-001
    17    25    0.6804319689E-001
    18    25    0.1008175661E-001
    19    25    0.1684970288E-001
    20    25    0.1880086322E-001
    21    25   -0.7837961000E-002
    22    25    0.1923617398E-001
    23    25    0.4716302074E-002
    24    25   -0.9793832381E-002
    25    25    0.3102426065E+001
     1    26   -0.3205606301E-003
     2    26   -0.4869286853E-001
     3    26    0.3149012867E-001
     4    26    0.2006946225E-001
     5    26    0.4154344003E-001
     6    26   -0.8278748758E-001
     7    26    0.1890912337E-001
     8    26   -0.1760166686E-001
     9    26    0.4213298103E-001
    10    26   -0.7132455417E-002
    11    26    0.1660209713E-001
    12    26   -0.3298067498E-001
    13    26    0.7570970747E-002
    14    26    0.3861494701E-001
    15    26    0.1173407020E+000
    16    26   -0.7883122916E-001
    17    26    0.3122689955E-001
    18    26    0.1578818965E-001
    19    26    0.1310544727E-001
    20    26    0.3583546869E-001
    21    26   -0.2311235235E-001
    22    26    0.1348947371E-001
    23    26    0.9000988928E-002
    24    26    0.2684358857E-001
    25    26   -0.4847302866E-001
    26    26    0.3090474621E+001
     1    27   -0.3805517295E-004
     2    27   -0.6826368779E-002
     3    27    0.4367327804E-002
     4    27    0.2823029246E-002
     5    27    0.2114303614E-001
     6    27   -0.8520176866E-002
     7    27    0.3430494156E-002
     8    27   -0.1354584488E-001
     9    27    0.4836803052E-002
    10    27   -0.3402351951E-002
    11    27    0.8356946029E-002
    12    27   -0.3348900837E-002
    13    27    0.1274968989E-002
    14    27    0.1358519665E-001
    15    27    0.2799987340E-001
    16    27    0.6975864795E-001
    17    27   -0.4314040769E-001
    18    27    0.4153018158E-002
    19    27    0.4502004718E-002
    20    27    0.5262543019E-002
    21    27    0.1330176224E-001
    22    27   -0.9015481527E-002
    23    27    0.8540264277E-003
    24    27    0.1546231702E-002
    25    27   -0.1884555234E-001
    26    27    0.1611121342E-001
    27    27    0.3116316071E+001
     1    28   -0.4840951391E-003
     2    28   -0.6975028016E-001
     3    28    0.4528024646E-001
     4    28    0.2871343772E-001
     5    28    0.1890912337E-001
     6    28   -0.4136619330E-001
     7    28   -0.6244994138E-001
     8    28   -0.7132455417E-002
     9    28    0.2060587855E-001
    10    28    0.2867874057E-001
    11    28    0.7570970747E-002
    12    28   -0.1647168136E-001
    13    28   -0.2492403807E-001
    14    28    0.6407618483E-002
    15    28    0.3122689955E-001
    16    28    0.5052910602E-001
    17    28    0.6888776427E-001
    18    28   -0.8773328230E-001
    19    28    0.4723589035E-002
    20    28    0.1348947371E-001
    21    28    0.1178396742E-001
    22    28    0.1456282468E-001
    23    28   -0.3242173327E-001
    24    28   -0.7683236275E-002
    25    28   -0.4523910178E-001
    26    28   -0.3831537839E-001
    27    28    0.4879849187E-002
    28    28    0.3057033314E+001
     1    29   -0.1535134995E-003
     2    29   -0.2217979554E-001
     3    29    0.1439656284E-001
     4    29    0.9131177675E-002
     5    29    0.4593250408E-001
     6    29   -0.7754972666E-002
     7    29    0.7754353514E-002
     8    29   -0.2540220471E-001
     9    29   -0.2118658094E-002
    10    29   -0.6022053981E-003
    11    29    0.1829837997E-001
    12    29   -0.3218895414E-002
    13    29    0.3213253763E-002
    14    29    0.1008175661E-001
    15    29    0.7572716701E-001
    16    29   -0.1583522515E-001
    17    29    0.6543999612E-001
    18    29    0.6804626736E-001
    19    29    0.4716302074E-002
    20    29    0.2291502134E-001
    21    29   -0.7385739092E-002
    22    29    0.1688235950E-001
    23    29    0.1688551529E-001
    24    29    0.3239166470E-001
    25    29   -0.2014585469E-001
    26    29   -0.5474511711E-001
    27    29    0.3139453352E-001
    28    29    0.3525756329E-002
    29    29    0.3086640701E+001
     1    30    0.5045064978E-003
     2    30    0.7365288119E-001
     3    30   -0.4776737426E-001
     4    30   -0.3032931037E-001
     5    30   -0.2428540362E-001
     6    30    0.1918174332E-001
     7    30    0.9839883013E-001
     8    30    0.1265973879E-001
     9    30   -0.7963949926E-002
    10    30   -0.4710943012E-001
    11    30   -0.9672186766E-002
    12    30    0.7682941739E-002
    13    30    0.3921201622E-001
    14    30   -0.4228769418E-001
    15    30   -0.2488650337E-001
    16    30   -0.5749502884E-001
    17    30   -0.8807818759E-002
    18    30    0.1266869073E+000
    19    30   -0.7401280254E-002
    20    30   -0.1018112944E-001
    21    30   -0.2280812578E-001
    22    30   -0.3271799916E-002
    23    30    0.4166395914E-001
    24    30    0.4068444116E-002
    25    30    0.3936467181E-001
    26    30    0.1081540667E-001
    27    30    0.1657006265E-001
    28    30    0.9225234588E-001
    29    30    0.1333978408E-001
    30    30    0.3043151887E+001
     1    31   -0.6460214341E-004
     2    31   -0.1329951559E-001
     3    31    0.8084154861E-002
     4    31    0.5764710389E-002
     5    31    0.3694577706E-001
     6    31   -0.8593821079E-002
     7    31   -0.5103739152E-002
     8    31   -0.1856997886E-001
     9    31    0.3268959404E-002
    10    31    0.2040848980E-002
    11    31    0.1480307366E-001
    12    31   -0.3539173971E-002
    13    31   -0.2112524989E-002
    14    31   -0.5037054287E-001
    15    31    0.1516810374E-001
    16    31    0.5001851213E-002
    17    31    0.4386751334E-002
    18    31    0.8502674530E-002
    19    31   -0.1353406241E-001
    20    31    0.6391416441E-002
    21    31    0.1675561406E-002
    22    31    0.1873112007E-002
    23    31    0.9382310592E-003
    24    31   -0.9590432392E-001
    25    31   -0.1198463144E-001
    26    31    0.1139098669E-001
    27    31   -0.6225301650E-002
    28    31   -0.1046377270E-001
    29    31   -0.1656792246E-001
    30    31    0.4941799499E-001
    31    31    0.5163515347E+001
     1    32   -0.4323428749E-004
     2    32   -0.4572965011E-002
     3    32    0.3005885449E-002
     4    32    0.2012761986E-002
     5    32    0.1195249680E-001
     6    32   -0.4690867728E-002
     7    32   -0.1032283328E-001
     8    32   -0.5734475190E-002
     9    32    0.1727490283E-002
    10    32    0.5911656618E-002
    11    32    0.4825085691E-002
    12    32   -0.1952203439E-002
    13    32   -0.4064433154E-002
    14    32   -0.1066986703E-001
    15    32   -0.2085802138E-002
    16    32   -0.2214472658E-002
    17    32   -0.1511749469E-001
    18    32    0.3491220396E-001
    19    32   -0.2119100064E-002
    20    32    0.3023006427E-002
    21    32   -0.1166308637E-002
    22    32   -0.4097714819E-002
    23    32    0.9187993263E-002
    24    32    0.5667544514E-001
    25    32   -0.3552792916E-001
    26    32   -0.1398524654E-001
    27    32   -0.3271583581E-003
    28    32    0.1019667090E-001
    29    32   -0.6452575104E-001
    30    32    0.8450692390E-003
    31    32   -0.1029159507E-001
    32    32    0.5188356657E+001
     1    33    0.1471970923E-003
     2    33    0.3847424691E-001
     3    33   -0.2288040584E-001
     4    33   -0.1657164616E-001
     5    33   -0.4436893650E-001
     6    33    0.5204608937E-001
     7    33   -0.2619513692E-001
     8    33    0.1916354766E-001
     9    33   -0.2191145038E-001
    10    33    0.1207889538E-001
    11    33   -0.1805067984E-001
    12    33    0.2122574973E-001
    13    33   -0.1057337422E-001
    14    33   -0.1179018417E-001
    15    33   -0.6138802320E-001
    16    33    0.3089334456E-001
    17    33   -0.5944106974E-001
    18    33   -0.5910418470E-002
    19    33   -0.6506672400E-002
    20    33   -0.2472345091E-001
    21    33    0.1199153028E-001
    22    33   -0.1975369935E-001
    23    33   -0.3107908640E-002
    24    33    0.3861586528E-001
    25    33    0.1012067023E+000
    26    33    0.3222426911E-001
    27    33    0.5773705569E-002
    28    33    0.7691344727E-001
    29    33    0.1964729623E-001
    30    33   -0.2064961479E-001
    31    33    0.4262144077E-001
    32    33   -0.1605342498E-001
    33    33    0.5162299998E+001
     1    34    0.9569906426E-004
     2    34    0.2357700591E-001
     3    34   -0.1410230292E-001
     4    34   -0.1017633454E-001
     5    34   -0.1351454531E-001
     6    34    0.4561134167E-001
     7    34   -0.4712500549E-002
     8    34    0.4375112921E-002
     9    34   -0.2037869446E-001
    10    34    0.1038456981E-002
    11    34   -0.5640267983E-002
    12    34    0.1851069582E-001
    13    34   -0.2007295787E-002
    14    34   -0.6107042927E-003
    15    34   -0.3613607055E-001
    16    34    0.6569874836E-001
    17    34   -0.1248127745E-001
    18    34    0.2741511020E-002
    19    34   -0.1814379090E-002
    20    34   -0.1546422766E-001
    21    34    0.2029304256E-001
    22    34   -0.6360165140E-002
    23    34   -0.1291175082E-002
    24    34    0.3025977495E-003
    25    34    0.3306980031E-001
    26    34    0.1100825410E+000
    27    34   -0.6377411401E-001
    28    34    0.2581875032E-001
    29    34    0.8050158703E-002
    30    34    0.2765358515E-002
    31    34   -0.3888202586E-002
    32    34    0.2059441320E-001
    33    34   -0.3700753987E-001
    34    34    0.5189707161E+001
     1    35   -0.2197569915E-004
     2    35   -0.2690778681E-002
     3    35    0.1721329420E-002
     4    35    0.1173155468E-002
     5    35   -0.2875420743E-001
     6    35    0.2353121867E-001
     7    35   -0.5929015677E-001
     8    35    0.1284830705E-001
     9    35   -0.9350150442E-002
    10    35    0.2535749085E-001
    11    35   -0.1165796986E-001
    12    35    0.9641980257E-002
    13    35   -0.2414441526E-001
    14    35   -0.1845668609E-001
    15    35   -0.5362284806E-001
    16    35    0.3219986161E-001
    17    35   -0.2552547228E-001
    18    35   -0.5855412686E-001
    19    35   -0.8121484034E-002
    20    35   -0.1828376667E-001
    21    35    0.1375415198E-001
    22    35   -0.9186992786E-002
    23    35   -0.2425937233E-001
    24    35   -0.6233288286E-002
    25    35    0.3581910171E-001
    26    35    0.5340086015E-001
    27    35    0.7492132087E-001
    28    35   -0.5639606530E-001
    29    35    0.2682909746E-001
    30    35    0.3383110968E-001
    31    35    0.1769440383E-002
    32    35    0.5467914339E-002
    33    35   -0.3907971540E-001
    34    35    0.5379585650E-002
    35    35    0.5171958549E+001
     1    36    0.8074175612E-004
     2    36    0.1745994916E-001
     3    36   -0.1056065984E-001
     4    36   -0.7557316481E-002
     5    36   -0.4712500549E-002
     6    36    0.4247956685E-001
     7    36    0.2500098046E-002
     8    36    0.1038456981E-002
     9    36   -0.2061498959E-001
    10    36   -0.8362360223E-003
    11    36   -0.2007295787E-002
    12    36    0.1708669463E-001
    13    36    0.1062412899E-002
    14    36    0.3691547837E-002
    15    36   -0.1248127745E-001
    16    36    0.2684565091E-001
    17    36    0.2462529330E-001
    18    36    0.7359089927E-002
    19    36   -0.4326423533E-003
    20    36   -0.6360165140E-002
    21    36    0.7847883441E-002
    22    36    0.6345915115E-002
    23    36    0.3532346885E-002
    24    36   -0.2065542032E-002
    25    36    0.2141245458E-002
    26    36    0.2581875032E-001
    27    36    0.4334595022E-001
    28    36    0.7661153118E-001
    29    36   -0.5745174285E-001
    30    36   -0.7336687208E-002
    31    36    0.6402012025E-003
    32    36   -0.7065824573E-003
    33    36   -0.3711829284E-001
    34    36   -0.3033930137E-001
    35    36    0.4616345491E-002
    36    36    0.5163421099E+001
     1    37    0.2431993599E-003
     2    37    0.6271109625E-001
     3    37   -0.3737223666E-001
     4    37   -0.2704136036E-001
     5    37   -0.3817049738E-001
     6    37    0.3916734808E-001
     7    37    0.6404067064E-001
     8    37    0.1668083863E-001
     9    37   -0.1617139937E-001
    10    37   -0.2835516716E-001
    11    37   -0.1553132687E-001
    12    37    0.1602813554E-001
    13    37    0.2599643445E-001
    14    37   -0.5910418470E-002
    15    37   -0.7110538292E-001
    16    37   -0.3117319401E-001
    17    37    0.2339483463E-002
    18    37    0.4234797447E-001
    19    37   -0.3107908640E-002
    20    37   -0.2488394595E-001
    21    37   -0.9467640016E-002
    22    37   -0.2100049862E-002
    23    37    0.1838619539E-001
    24    37   -0.6478150359E-002
    25    37    0.1964729623E-001
    26    37    0.8392808291E-001
    27    37    0.5827538366E-002
    28    37    0.9887537698E-001
    29    37    0.8833874403E-001
    30    37   -0.9353834580E-001
    31    37    0.1511425914E-001
    32    37    0.4390072169E-001
    33    37   -0.2814471490E-001
    34    37   -0.4356070565E-001
    35    37    0.3432989803E-001
    36    37   -0.2162903148E-002
    37    37    0.5125661617E+001
     1    38   -0.1321717625E-003
     2    38   -0.3200710384E-001
     3    38    0.1915839858E-001
     4    38    0.1381173871E-001
     5    38    0.3462982992E-001
     6    38   -0.5000966953E-001
     7    38    0.1176026085E-001
     8    38   -0.1515767007E-001
     9    38    0.2220680026E-001
    10    38   -0.5644363653E-002
    11    38    0.1407472881E-001
    12    38   -0.2029433838E-001
    13    38    0.4709586213E-002
    14    38    0.4216221327E-001
    15    38    0.4948423886E-001
    16    38   -0.6166150540E-002
    17    38   -0.1590813290E-001
    18    38    0.1435702090E-001
    19    38    0.1271720653E-001
    20    38    0.1983071462E-001
    21    38   -0.3389173411E-002
    22    38   -0.1127746080E-002
    23    38    0.3910999058E-002
    24    38    0.8450692390E-003
    25    38   -0.7761347745E-001
    26    38   -0.3655977922E-001
    27    38   -0.4797122935E-001
    28    38   -0.2492212789E-001
    29    38    0.3692908091E-001
    30    38    0.6854338938E-001
    31    38   -0.3435872442E-001
    32    38   -0.1483251459E-002
    33    38    0.6117400043E-001
    34    38    0.3563335244E-002
    35    38    0.2702533324E-001
    36    38    0.5270865125E-001
    37    38    0.3719373760E-001
    38    38    0.5160143081E+001
     1    39   -0.1712108198E-003
     2    39   -0.4438074642E-001
     3    39    0.2643020288E-001
     4    39    0.1913026456E-001
     5    39   -0.7873405273E-003
     6    39   -0.6796567175E-004
     7    39   -0.9516401050E-001
     8    39    0.3823894403E-003
     9    39    0.3185923947E-004
    10    39    0.4069712797E-001
    11    39   -0.3049809968E-003
    12    39   -0.4083523206E-004
    13    39   -0.3875896454E-001
    14    39   -0.1583729147E-001
    15    39   -0.7397794079E-003
    16    39    0.4699164457E-001
    17    39   -0.1256089224E-001
    18    39   -0.1031308866E+000
    19    39   -0.4459658703E-002
    20    39   -0.6224186268E-003
    21    39    0.2070677943E-001
    22    39   -0.5124352511E-002
    23    39   -0.3909634464E-001
    24    39    0.3779152766E-001
    25    39    0.1510421961E-001
    26    39    0.1131152534E-002
    27    39   -0.3281423141E-002
    28    39   -0.6798308914E-001
    29    39   -0.1706690231E-002
    30    39    0.1416688761E+000
    31    39   -0.4362774196E-002
    32    39   -0.2923922802E-001
    33    39   -0.5726004043E-002
    34    39   -0.6415580529E-003
    35    39   -0.4245710385E-001
    36    39    0.1071814898E-001
    37    39    0.7742298684E-001
    38    39    0.6366277052E-002
    39    39    0.5124694386E+001
     1    40   -0.1195759714E+001
     2    40   -0.1007201295E+000
     3    40    0.5346883948E+000
     4    40   -0.7385631410E-001
     5    40    0.2818360336E-001
     6    40   -0.3708144633E-001
     7    40   -0.8223817690E-001
     8    40   -0.2369664413E-001
     9    40    0.3117819197E-001
    10    40    0.2931962731E+000
    11    40    0.3011490202E-002
    12    40   -0.3962196700E-002
    13    40    0.3559471961E-001
    14    40   -0.2170839365E-002
    15    40    0.2922896178E-001
    16    40    0.3504862087E-001
    17    40   -0.2856414807E-002
    18    40   -0.7694729670E-001
    19    40   -0.3009996802E-003
    20    40    0.1453871658E-001
    21    40    0.1782322087E-002
    22    40   -0.3960583593E-003
    23    40   -0.1116563862E-001
    24    40   -0.9938881404E-003
    25    40   -0.7091376531E-002
    26    40   -0.2017829290E-001
    27    40   -0.2938937299E-002
    28    40   -0.3020909512E-001
    29    40   -0.9070134418E-002
    30    40    0.3578253729E-001
    31    40   -0.4495901854E-002
    32    40   -0.3135201458E-002
    33    40    0.1060654672E-001
    34    40    0.9721639970E-002
    35    40   -0.1443423348E-003
    36    40    0.5656163253E-002
    37    40    0.2301659668E-001
    38    40   -0.9411407133E-002
    39    40   -0.1484532891E-001
    40    40   -0.5075333044E+000
     1    41    0.4245617090E+000
     2    41   -0.3600406974E-001
     3    41   -0.2151412888E-001
     4    41   -0.2774215887E-001
     5    41   -0.3002257429E-001
     6    41    0.3950082483E-001
     7    41   -0.4067341087E-001
     8    41    0.4210427986E-002
     9    41   -0.5539314592E-002
    10    41    0.2777312690E+000
    11    41   -0.3537110594E-002
    12    41    0.4653955309E-002
    13    41    0.1077221818E+000
    14    41   -0.1259523760E-001
    15    41   -0.3042660539E-001
    16    41    0.8231922275E-002
    17    41   -0.1657160510E-001
    18    41    0.2648610957E-002
    19    41   -0.2543524252E-002
    20    41   -0.2276220818E-001
    21    41   -0.1397236708E-001
    22    41   -0.3346374890E-002
    23    41    0.3684887990E-001
    24    41    0.7818560267E-002
    25    41    0.1735557233E-001
    26    41    0.2181824316E-001
    27    41    0.8969790879E-002
    28    41    0.1273415304E+000
    29    41    0.3426024933E-002
    30    41   -0.1565232157E+000
    31    41    0.2346661338E-001
    32    41    0.3856519969E-002
    33    41   -0.2414514090E-001
    34    41   -0.1172358511E-001
    35    41    0.8230390053E-001
    36    41   -0.2632229932E-001
    37    41   -0.1501033538E+000
    38    41    0.3079954832E-001
    39    41    0.1797706731E+000
    40    41    0.2682582378E-001
    41    41    0.3694250806E+000
     1    42   -0.1195779184E+001
     2    42   -0.1007190302E+000
     3    42    0.5346944667E+000
     4    42   -0.7385665996E-001
     5    42    0.5631044184E-001
     6    42   -0.7408800470E-001
     7    42   -0.1650117050E-001
     8    42   -0.1751698961E+000
     9    42    0.2304719848E+000
    10    42   -0.6080943989E-001
    11    42   -0.1930279288E-001
    12    42    0.2539675339E-001
    13    42   -0.1655644285E-001
    14    42    0.2026367148E-001
    15    42    0.7974896486E-001
    16    42   -0.2251552796E-001
    17    42    0.2666094497E-001
    18    42   -0.5315024539E-002
    19    42    0.3744387099E-003
    20    42    0.1605959090E-001
    21    42    0.4889223802E-004
    22    42    0.4926000478E-003
    23    42   -0.9008354130E-002
    24    42   -0.4412772024E-002
    25    42   -0.1672017851E-001
    26    42   -0.2751556466E-001
    27    42   -0.6633326846E-002
    28    42   -0.2763169888E-001
    29    42   -0.9475413102E-002
    30    42    0.2808665382E-001
    31    42   -0.6932117002E-002
    32    42   -0.5882728691E-004
    33    42    0.1230862277E-001
    34    42    0.7317947136E-002
    35    42   -0.4924472695E-003
    36    42    0.8306247643E-002
    37    42    0.2048038334E-001
    38    42   -0.1213651901E-001
    39    42   -0.1478798088E-001
    40    42   -0.3720221543E+000
    41    42    0.9681203997E-001
    42    42   -0.5075394307E+000
     1    43    0.4245444030E+000
     2    43   -0.3600303459E-001
     3    43   -0.2150793254E-001
     4    43   -0.2774265417E-001
     5    43    0.1319522939E-001
     6    43   -0.1736096331E-001
     7    43    0.6033465270E-001
     8    43   -0.1570467888E+000
     9    43    0.2066272715E+000
    10    43   -0.9913666328E-001
    11    43   -0.6263568682E-001
    12    43    0.8241008882E-001
    13    43   -0.3039633997E-001
    14    43   -0.3192086129E-002
    15    43   -0.9251847002E-002
    16    43   -0.1589678763E-001
    17    43   -0.4199756721E-002
    18    43    0.3267485295E-001
    19    43   -0.1029755717E-001
    20    43   -0.4022349974E-001
    21    43    0.5923620772E-002
    22    43   -0.1354847351E-001
    23    43    0.1209048143E-001
    24    43   -0.2903681545E-002
    25    43    0.9641960233E-001
    26    43    0.1250498427E+000
    27    43    0.1042932635E-001
    28    43    0.8736353453E-001
    29    43    0.6478586651E-001
    30    43   -0.6904115883E-001
    31    43    0.3496344832E-001
    32    43    0.1924541399E-001
    33    43   -0.1437106255E+000
    34    43   -0.9067942712E-001
    35    43   -0.6868108200E-001
    36    43   -0.5026421457E-001
    37    43   -0.1215201084E+000
    38    43    0.1091299183E+000
    39    43    0.1278632007E-001
    40    43    0.9680904942E-001
    41    43    0.9568442283E-001
    42    43    0.2682245687E-001
    43    43    0.3694234201E+000
