     1     1    0.9999999031E+000
     1     2   -0.3064742592E-007
     2     2    0.1000000084E+001
     1     3   -0.4621815296E-007
     2     3    0.3890278021E-007
     3     3    0.1000000006E+001
     1     4    0.1129108258E-007
     2     4   -0.3493219789E-007
     3     4   -0.4096831469E-007
     4     4    0.1000000080E+001
     1     5    0.5074169565E-007
     2     5    0.4999753579E-007
     3     5   -0.3685621010E-009
     4     5   -0.1153457141E-007
     5     5    0.1000000049E+001
     1     6   -0.3552931768E-007
     2     6    0.5134842782E-008
     3     6    0.5675346940E-007
     4     6   -0.5306962036E-007
     5     6   -0.3291536886E-007
     6     6    0.1000000041E+001
     1     7   -0.1040526455E-006
     2     7   -0.6627643401E-008
     3     7    0.7007563938E-007
     4     7   -0.3455837659E-007
     5     7   -0.7184769359E-007
     6     7    0.3485235087E-007
     7     7    0.1000000075E+001
     1     8    0.9690395568E-007
     2     8   -0.4645686591E-008
     3     8   -0.6072586436E-007
     4     8    0.1450078051E-007
     5     8   -0.2697762597E-007
     6     8   -0.4432105973E-007
     7     8   -0.6587581555E-007
     8     8    0.9999998785E+000
     1     9   -0.7676206934E-007
     2     9    0.6741001282E-007
     3     9    0.1345738380E-006
     4     9   -0.5030547542E-007
     5     9   -0.4432105973E-007
     6     9    0.6981742189E-007
     7     9    0.4561360476E-007
     8     9   -0.9174117464E-007
     9     9    0.1000000145E+001
     1    10   -0.2032586997E-006
     2    10    0.7643973552E-007
     3    10    0.1635598985E-006
     4    10   -0.6346589776E-007
     5    10   -0.6587581555E-007
     6    10    0.4561360477E-007
     7    10    0.1003833957E-006
     8    10   -0.7253872000E-007
     9    10    0.7223379401E-007
    10    10    0.1000000115E+001
     1    11    0.2275561830E-007
     2    11    0.1387557662E-007
     3    11    0.1423679546E-007
     4    11    0.4477998286E-007
     5    11    0.7305358733E-008
     6    11    0.3353927286E-007
     7    11   -0.5356399223E-008
     8    11   -0.1016857688E-007
     9    11   -0.2093062207E-007
    10    11   -0.3172298243E-007
    11    11    0.9999999508E+000
     1    12   -0.1703212590E-007
     2    12    0.4666312781E-007
     3    12    0.2173212678E-007
     4    12    0.6867379721E-007
     5    12    0.3353927286E-007
     6    12    0.2673850933E-007
     7    12   -0.1222328073E-007
     8    12   -0.2093062207E-007
     9    12    0.3819697998E-007
    10    12    0.1225664124E-007
    11    12   -0.1210303997E-006
    12    12    0.1000000179E+001
     1    13   -0.4741161851E-007
     2    13    0.2098336577E-007
     3    13    0.2145588105E-007
     4    13    0.9364451805E-007
     5    13   -0.5356399227E-008
     6    13   -0.1222328072E-007
     7    13   -0.2312961876E-007
     8    13   -0.3172298243E-007
     9    13    0.1225664124E-007
    10    13    0.5016810620E-007
    11    13   -0.9868368603E-008
    12    13   -0.2547711330E-007
    13    13    0.1000000042E+001
     1    14    0.3243597067E-007
     2    14   -0.2831215518E-007
     3    14    0.2435150955E-007
     4    14    0.7293183086E-007
     5    14   -0.1862798954E-007
     6    14    0.5857814403E-007
     7    14    0.4120230423E-008
     8    14    0.1678994720E-007
     9    14    0.7284598645E-007
    10    14   -0.8385676590E-007
    11    14   -0.7228698045E-007
    12    14    0.3712095671E-007
    13    14    0.5455489813E-007
    14    14    0.9999998517E+000
     1    15   -0.4349335759E-007
     2    15   -0.6142458911E-008
     3    15    0.1514772863E-008
     4    15   -0.1048059155E-007
     5    15   -0.5126131039E-008
     6    15    0.2090123283E-007
     7    15   -0.5857814403E-007
     8    15   -0.2060596572E-007
     9    15    0.4746886685E-007
    10    15   -0.7284598645E-007
    11    15    0.2457190934E-007
    12    15    0.1615893554E-007
    13    15   -0.3712095671E-007
    14    15    0.8188882945E-008
    15    15    0.1000000017E+001
     1    16    0.3401722463E-008
     2    16   -0.1260265888E-007
     3    16   -0.7470440068E-007
     4    16   -0.2400700909E-007
     5    16    0.1972367950E-007
     6    16   -0.6847970169E-007
     7    16    0.6923104216E-007
     8    16   -0.7843808585E-008
     9    16   -0.1323740740E-006
    10    16    0.1760856688E-006
    11    16    0.5247073995E-007
    12    16   -0.2779362260E-007
    13    16    0.8575069169E-008
    14    16    0.4568808809E-007
    15    16   -0.2233894163E-009
    16    16    0.9999999870E+000
     1    17    0.2479252207E-007
     2    17   -0.3263544654E-007
     3    17   -0.8475926938E-008
     4    17    0.5279378949E-007
     5    17   -0.5857814403E-007
     6    17    0.4408925155E-007
     7    17    0.3078264871E-007
     8    17   -0.7284598646E-007
     9    17    0.9903707266E-007
    10    17    0.9387246362E-008
    11    17   -0.3712095671E-007
    12    17    0.3908153444E-007
    13    17    0.4848630120E-007
    14    17    0.2272882996E-007
    15    17    0.1034732681E-007
    16    17   -0.3339826469E-007
    17    17    0.9999999749E+000
     1    18    0.3454228959E-007
     2    18   -0.3121850614E-007
     3    18   -0.1761550910E-007
     4    18    0.2618800187E-007
     5    18    0.9140951754E-008
     6    18    0.1795438985E-007
     7    18   -0.9445042053E-007
     8    18    0.2280202393E-007
     9    18    0.1499660606E-007
    10    18   -0.1891623050E-006
    11    18    0.2016815382E-007
    12    18    0.1195719594E-007
    13    18   -0.4805790147E-007
    14    18    0.3605918213E-008
    15    18   -0.8528846112E-008
    16    18   -0.1946686545E-007
    17    18    0.1028534728E-007
    18    18    0.9999999958E+000
     1    19   -0.4110666287E-007
     2    19    0.1876980441E-006
     3    19    0.2846280740E-007
     4    19   -0.1780746057E-006
     5    19    0.2189293204E-006
     6    19   -0.6059799566E-007
     7    19   -0.1294902268E-006
     8    19    0.4769096273E-007
     9    19   -0.9222095096E-007
    10    19    0.3520920144E-007
    11    19    0.2411425193E-006
    12    19    0.1264087002E-007
    13    19   -0.1341466887E-006
    14    19    0.1388088221E-006
    15    19   -0.1201139158E-007
    16    19   -0.4210753021E-007
    17    19   -0.3434079296E-007
    18    19   -0.3418516298E-007
    19    19    0.1000000281E+001
     1    20    0.5558095601E-007
     2    20   -0.1033621881E-007
     3    20    0.4304417945E-008
     4    20   -0.9954296453E-007
     5    20   -0.5674893682E-007
     6    20   -0.7861330224E-007
     7    20    0.6059799566E-007
     8    20    0.1856193727E-007
     9    20   -0.7382597227E-007
    10    20    0.9222095096E-007
    11    20   -0.8713165178E-008
    12    20   -0.5907011711E-007
    13    20   -0.1264087003E-007
    14    20   -0.1201139158E-007
    15    20   -0.2192777187E-007
    16    20    0.5129305283E-008
    17    20    0.3782690765E-008
    18    20    0.2646842239E-007
    19    20   -0.8657081343E-007
    20    20    0.1000000014E+001
     1    21    0.1049989973E-009
     2    21   -0.7035433882E-007
     3    21    0.4902139364E-007
     4    21    0.4892023823E-007
     5    21   -0.1632222308E-006
     6    21    0.4209858534E-007
     7    21   -0.4252660452E-007
     8    21   -0.4602527534E-007
     9    21    0.1406530887E-006
    10    21   -0.1859989548E-006
    11    21   -0.1679161208E-006
    12    21    0.2277415999E-007
    13    21    0.3726966191E-007
    14    21   -0.4210753020E-007
    15    21    0.5129305284E-008
    16    21    0.2581641158E-007
    17    21    0.2875526759E-007
    18    21    0.4086903911E-007
    19    21   -0.1837062048E-006
    20    21    0.6630070914E-007
    21    21    0.1000000052E+001
     1    22   -0.3094843689E-007
     2    22    0.1098649844E-006
     3    22    0.3705347770E-007
     4    22   -0.8875691495E-007
     5    22    0.6059799566E-007
     6    22   -0.1183530089E-006
     7    22   -0.7532385377E-007
     8    22    0.9222095096E-007
     9    22   -0.1199510653E-006
    10    22   -0.2017223992E-007
    11    22   -0.1264087003E-007
    12    22   -0.4500290993E-007
    13    22   -0.1894768850E-007
    14    22   -0.3434079297E-007
    15    22    0.3782690784E-008
    16    22    0.2875526759E-007
    17    22   -0.8083085618E-008
    18    22   -0.3471344094E-007
    19    22    0.6528063688E-007
    20    22   -0.1700025398E-007
    21    22   -0.5277822983E-007
    22    22    0.1000000192E+001
     1    23   -0.4002870859E-007
     2    23    0.2825034665E-008
     3    23    0.3170946264E-007
     4    23    0.4203958288E-007
     5    23   -0.7460566763E-007
     6    23   -0.9287458434E-008
     7    23    0.1742345512E-006
     8    23   -0.4110134445E-007
     9    23   -0.1936708861E-007
    10    23    0.2498995373E-006
    11    23   -0.9762244679E-007
    12    23   -0.5117261653E-008
    13    23    0.1315866614E-006
    14    23   -0.3418516298E-007
    15    23    0.2646842239E-007
    16    23    0.4086903911E-007
    17    23   -0.3471344094E-007
    18    23   -0.1625254739E-007
    19    23   -0.1046029118E-006
    20    23    0.5625326669E-007
    21    23    0.3480803011E-007
    22    23    0.1218289289E-006
    23    23    0.1000000041E+001
     1    24    0.6481353831E-008
     2    24    0.3843463838E-008
     3    24   -0.4964649642E-007
     4    24   -0.3402320814E-007
     5    24    0.2850813062E-007
     6    24   -0.1327689166E-007
     7    24   -0.4131173294E-007
     8    24   -0.3458692219E-007
     9    24   -0.1218253410E-007
    10    24    0.1475640136E-007
    11    24    0.7708451898E-007
    12    24    0.1098176810E-009
    13    24   -0.4624396362E-007
    14    24    0.7313294704E-007
    15    24    0.4691195776E-008
    16    24   -0.6410398050E-007
    17    24    0.4151633581E-008
    18    24    0.6037118031E-008
    19    24   -0.6708733807E-007
    20    24   -0.2942579859E-007
    21    24    0.6798373308E-007
    22    24    0.4014647275E-007
    23    24    0.2556111198E-007
    24    24    0.9999999273E+000
     1    25    0.3393301898E-007
     2    25   -0.6145549294E-007
     3    25   -0.2617346814E-007
     4    25    0.6202439918E-007
     5    25   -0.2304760577E-008
     6    25   -0.2213800011E-009
     7    25    0.1891593140E-007
     8    25    0.4753432528E-008
     9    25   -0.2606901395E-007
    10    25    0.2489763525E-007
    11    25   -0.3575555309E-007
    12    25    0.3886084093E-008
    13    25    0.1836374457E-007
    14    25   -0.8328545176E-008
    15    25   -0.2473398595E-007
    16    25    0.1075000883E-007
    17    25    0.7228036690E-008
    18    25    0.4172299381E-008
    19    25   -0.2297810241E-007
    20    25   -0.1347735136E-007
    21    25   -0.2347475170E-007
    22    25   -0.5135226472E-007
    23    25   -0.2743956762E-007
    24    25    0.7464990667E-008
    25    25    0.9999999508E+000
     1    26    0.2888024626E-007
     2    26    0.2610972208E-007
     3    26    0.4455525650E-007
     4    26    0.4005000547E-007
     5    26    0.1822820169E-007
     6    26    0.4952950773E-008
     7    26    0.2378604234E-007
     8    26    0.7003542652E-007
     9    26    0.3318795724E-009
    10    26    0.1122566477E-007
    11    26   -0.5245756978E-007
    12    26    0.2289619052E-007
    13    26    0.5832062557E-007
    14    26   -0.8641969308E-007
    15    26   -0.1200763665E-007
    16    26    0.3141831185E-007
    17    26   -0.5921409283E-008
    18    26   -0.4805040166E-008
    19    26    0.1037939358E-006
    20    26    0.4018927706E-007
    21    26   -0.3424742646E-007
    22    26    0.3945831980E-007
    23    26   -0.1435545781E-007
    24    26    0.6145323490E-007
    25    26    0.7318589307E-008
    26    26    0.9999999576E+000
     1    27   -0.6634216910E-008
     2    27    0.7343619308E-007
     3    27    0.5537390215E-007
     4    27   -0.8398154993E-007
     5    27    0.5449787214E-008
     6    27   -0.2663472127E-007
     7    27   -0.3162026583E-007
     8    27    0.1301592046E-007
     9    27    0.2160522002E-007
    10    27   -0.3721208003E-007
    11    27    0.3322845993E-007
    12    27   -0.4686113918E-007
    13    27   -0.5124583531E-007
    14    27    0.1436812963E-007
    15    27   -0.1691270773E-007
    16    27   -0.1172590562E-007
    17    27    0.7292007345E-009
    18    27   -0.1797700629E-007
    19    27    0.1194402588E-007
    20    27    0.1759430442E-007
    21    27    0.3371955803E-007
    22    27    0.6029478067E-007
    23    27    0.4083834590E-007
    24    27    0.7347625022E-008
    25    27    0.4116170701E-007
    26    27   -0.1205746470E-007
    27    27    0.1000000025E+001
     1    28    0.6484230972E-007
     2    28   -0.1821357096E-007
     3    28   -0.6710169800E-007
     4    28    0.8776635237E-008
     5    28    0.2378604234E-007
     6    28    0.1065380976E-007
     7    28    0.8597041169E-009
     8    28    0.1122566477E-007
     9    28   -0.2924905096E-007
    10    28    0.2461184912E-007
    11    28    0.5832062558E-007
    12    28    0.2247043965E-007
    13    28   -0.3750093756E-008
    14    28    0.8825084815E-007
    15    28   -0.5921409273E-008
    16    28   -0.3554018192E-007
    17    28   -0.6677931411E-007
    18    28    0.1893756939E-008
    19    28   -0.1297126745E-006
    20    28    0.3945831980E-007
    21    28    0.1164007352E-006
    22    28    0.6288479737E-007
    23    28   -0.2222608523E-007
    24    28   -0.6898432026E-007
    25    28    0.2999597125E-007
    26    28    0.7701837959E-008
    27    28    0.1581136446E-007
    28    28    0.9999998906E+000
     1    29    0.1241236168E-007
     2    29   -0.4253575916E-007
     3    29   -0.1210225748E-007
     4    29    0.4209832991E-007
     5    29   -0.1360567849E-007
     6    29    0.2113520116E-007
     7    29    0.5341920557E-007
     8    29   -0.4943357073E-008
     9    29   -0.1341089876E-007
    10    29    0.4390341493E-007
    11    29    0.1863274183E-007
    12    29    0.4968127595E-007
    13    29    0.5784570747E-007
    14    29    0.4172299384E-008
    15    29   -0.1507036415E-007
    16    29   -0.2803935042E-007
    17    29   -0.8941647624E-008
    18    29   -0.9290047877E-008
    19    29   -0.2743956762E-007
    20    29    0.2500873267E-007
    21    29    0.2655069581E-007
    22    29   -0.5907706657E-007
    23    29   -0.6989450327E-008
    24    29   -0.2718764813E-007
    25    29    0.3386294322E-007
    26    29   -0.1715053358E-007
    27    29    0.2856320389E-008
    28    29   -0.6256892203E-007
    29    29    0.9999999713E+000
     1    30   -0.5135128148E-007
     2    30   -0.1448299222E-007
     3    30   -0.1446978896E-007
     4    30   -0.5294580707E-007
     5    30    0.1974205226E-007
     6    30    0.2086738479E-007
     7    30    0.2842814229E-007
     8    30    0.1170421669E-008
     9    30    0.1986407479E-007
    10    30    0.7132860245E-007
    11    30    0.1106851929E-006
    12    30    0.9018267759E-008
    13    30   -0.5883641620E-007
    14    30    0.1080941905E-006
    15    30   -0.1096496995E-007
    16    30   -0.5506449010E-007
    17    30    0.3906132095E-008
    18    30   -0.2798483643E-007
    19    30   -0.1900428672E-006
    20    30    0.4662153559E-008
    21    30    0.7789832649E-007
    22    30   -0.1637111883E-007
    23    30    0.5837179785E-007
    24    30   -0.7604090073E-007
    25    30    0.2046856111E-007
    26    30    0.6303261843E-007
    27    30   -0.1044717930E-007
    28    30   -0.7903310164E-007
    29    30   -0.1406888581E-007
    30    30    0.9999998548E+000
     1    31   -0.6562188143E-009
     2    31   -0.2214099458E-007
     3    31   -0.1412486269E-007
     4    31   -0.4625646125E-007
     5    31   -0.3625082495E-008
     6    31   -0.4175502178E-008
     7    31   -0.1103145186E-007
     8    31    0.1232755620E-008
     9    31   -0.5659942742E-008
    10    31   -0.2914765334E-007
    11    31    0.5382530631E-007
    12    31   -0.2391064158E-007
    13    31   -0.6903824269E-007
    14    31    0.4810712820E-007
    15    31   -0.8594781352E-008
    16    31   -0.1567605783E-007
    17    31    0.3850123824E-007
    18    31   -0.1791494506E-007
    19    31   -0.1385902810E-006
    20    31    0.2895769574E-007
    21    31    0.5646480286E-007
    22    31   -0.8231540100E-007
    23    31    0.1224384854E-007
    24    31   -0.1886138554E-008
    25    31    0.5980627864E-008
    26    31    0.1974599902E-007
    27    31    0.4611298069E-008
    28    31    0.1655539109E-007
    29    31    0.3953570936E-007
    30    31   -0.7156801363E-007
    31    31    0.9999999819E+000
     1    32    0.6880063667E-008
     2    32    0.4860024044E-007
     3    32    0.4231395062E-007
     4    32   -0.8058801751E-008
     5    32    0.5149970139E-007
     6    32    0.1380479984E-007
     7    32   -0.4980282368E-007
     8    32    0.3807142449E-007
     9    32    0.1012016457E-007
    10    32   -0.2042251169E-007
    11    32    0.3916979197E-007
    12    32    0.4300584229E-007
    13    32   -0.2030483624E-007
    14    32   -0.1938387173E-008
    15    32   -0.3271642029E-007
    16    32   -0.8452706202E-008
    17    32   -0.3607019743E-007
    18    32   -0.3805320019E-007
    19    32    0.4189176068E-007
    20    32    0.1917461647E-007
    21    32   -0.1188791633E-008
    22    32    0.1307887340E-006
    23    32    0.6334293011E-007
    24    32   -0.3182666628E-007
    25    32   -0.5245196119E-007
    26    32    0.1419210072E-007
    27    32    0.5635338127E-008
    28    32   -0.9117967722E-007
    29    32   -0.6404988406E-007
    30    32   -0.8548884565E-007
    31    32   -0.5121331249E-007
    32    32    0.1000000020E+001
     1    33   -0.3560127180E-007
     2    33    0.1025186495E-007
     3    33   -0.4490782597E-007
     4    33   -0.1067908007E-006
     5    33    0.4896506084E-007
     6    33    0.1316900580E-008
     7    33   -0.3868475383E-007
     8    33   -0.4219871871E-007
     9    33   -0.6650658940E-008
    10    33    0.3049189012E-007
    11    33    0.1116511997E-006
    12    33   -0.6074786968E-007
    13    33   -0.1305216655E-006
    14    33    0.1268706975E-006
    15    33    0.1698433114E-007
    16    33   -0.3050966041E-007
    17    33    0.4691969544E-007
    18    33    0.1051397573E-007
    19    33   -0.1444086057E-006
    20    33   -0.1898722107E-007
    21    33    0.6355244997E-007
    22    33   -0.9396217781E-007
    23    33   -0.7678163741E-008
    24    33   -0.1356667068E-006
    25    33    0.3217469761E-007
    26    33    0.9356578786E-007
    27    33   -0.4758624188E-007
    28    33   -0.1885868523E-007
    29    33    0.6872547864E-007
    30    33   -0.1066698954E-006
    31    33   -0.2901875083E-007
    32    33   -0.7365947133E-007
    33    33    0.9999997935E+000
     1    34   -0.1156682596E-007
     2    34   -0.3182058757E-007
     3    34   -0.1885146699E-007
     4    34    0.5967596438E-007
     5    34   -0.4459436590E-007
     6    34   -0.2969467009E-008
     7    34    0.4850893532E-007
     8    34   -0.2749147624E-007
     9    34   -0.2008526884E-007
    10    34    0.2820530191E-007
    11    34   -0.5401802697E-007
    12    34    0.3670735759E-007
    13    34    0.7636581232E-007
    14    34   -0.1003588459E-008
    15    34    0.1779096020E-007
    16    34   -0.2168358921E-007
    17    34   -0.4394299337E-007
    18    34    0.1740519171E-008
    19    34   -0.9779130034E-008
    20    34    0.3481215762E-007
    21    34    0.1384188224E-008
    22    34    0.9970628849E-008
    23    34   -0.2531144371E-007
    24    34    0.2212664606E-007
    25    34    0.2787868904E-008
    26    34   -0.8651985434E-007
    27    34    0.3126410500E-007
    28    34    0.3471703452E-007
    29    34    0.2741528445E-008
    30    34    0.3102909171E-007
    31    34   -0.4891404673E-007
    32    34    0.5541176265E-007
    33    34    0.5110317145E-007
    34    34    0.1000000017E+001
     1    35   -0.3014748778E-008
     2    35    0.4405006627E-007
     3    35    0.2939539860E-007
     4    35   -0.2375247138E-007
     5    35   -0.1185964071E-007
     6    35   -0.7730163033E-007
     7    35   -0.4304826520E-007
     8    35    0.1569923690E-007
     9    35   -0.3912931552E-007
    10    35   -0.6973791464E-007
    11    35   -0.6186125013E-007
    12    35   -0.9193939124E-007
    13    35    0.1299987211E-007
    14    35   -0.8057251019E-007
    15    35    0.2535402447E-008
    16    35    0.1113709170E-006
    17    35    0.4150072393E-007
    18    35    0.1048409301E-007
    19    35    0.1441991473E-006
    20    35   -0.3214706552E-007
    21    35   -0.1332805924E-006
    22    35    0.8240602544E-008
    23    35    0.3289976867E-009
    24    35    0.1000251467E-006
    25    35   -0.4770475413E-007
    26    35   -0.3555177437E-007
    27    35    0.7764677893E-007
    28    35    0.1928709750E-006
    29    35    0.6457347215E-007
    30    35    0.1030156990E-006
    31    35   -0.3955184940E-007
    32    35    0.1260673011E-006
    33    35    0.1090579181E-006
    34    35    0.2942440893E-007
    35    35    0.9999998769E+000
     1    36   -0.1474922682E-007
     2    36    0.3676042514E-007
     3    36    0.3563868600E-007
     4    36   -0.4565654938E-007
     5    36    0.4850893533E-007
     6    36   -0.4213820771E-007
     7    36   -0.4454927302E-007
     8    36    0.2820530192E-007
     9    36    0.7395098631E-008
    10    36   -0.6340932662E-007
    11    36    0.7636581232E-007
    12    36   -0.4462818049E-009
    13    36   -0.1450540344E-007
    14    36   -0.5019910369E-008
    15    36   -0.4394299338E-007
    16    36   -0.1306624773E-007
    17    36   -0.3042271604E-007
    18    36   -0.3162646082E-007
    19    36    0.2675108082E-007
    20    36    0.9970628848E-008
    21    36    0.2698281958E-007
    22    36    0.1166797687E-006
    23    36    0.5182751206E-007
    24    36   -0.6760829870E-007
    25    36    0.5156946614E-007
    26    36    0.3471703454E-007
    27    36    0.1253581911E-006
    28    36   -0.6817802291E-007
    29    36   -0.9262723255E-007
    30    36   -0.7357030791E-007
    31    36    0.9353382091E-008
    32    36    0.5287892977E-008
    33    36   -0.1805077778E-007
    34    36   -0.3474033097E-007
    35    36    0.1292409767E-006
    36    36    0.1000000053E+001
     1    37   -0.3669425320E-007
     2    37   -0.3672035512E-007
     3    37    0.8581051494E-010
     4    37    0.7236713753E-007
     5    37    0.2240526545E-007
     6    37    0.5498923696E-007
     7    37    0.9327348405E-007
     8    37    0.2379436963E-008
     9    37   -0.1033950888E-008
    10    37    0.6524650937E-007
    11    37    0.2100034417E-007
    12    37    0.7504797414E-007
    13    37    0.9206175526E-007
    14    37    0.1051397572E-007
    15    37   -0.2698148409E-007
    16    37   -0.3019977295E-007
    17    37   -0.6998560254E-007
    18    37    0.5837554138E-010
    19    37   -0.7678163744E-008
    20    37    0.4558862843E-007
    21    37    0.1460773649E-007
    22    37    0.1980144352E-007
    23    37   -0.5077275944E-007
    24    37   -0.2464797527E-007
    25    37    0.6872547864E-007
    26    37   -0.2975842455E-007
    27    37    0.4257634224E-007
    28    37   -0.1203163330E-006
    29    37   -0.9491922269E-007
    30    37   -0.1036572940E-007
    31    37    0.4453249372E-007
    32    37   -0.8113239149E-007
    33    37    0.4756374988E-007
    34    37    0.7692773821E-007
    35    37    0.9174959838E-007
    36    37   -0.7156287844E-007
    37    37    0.9999997875E+000
     1    38    0.2466642234E-007
     2    38   -0.3437513828E-007
     3    38   -0.9159248452E-008
     4    38    0.2842849864E-007
     5    38    0.6161292730E-007
     6    38    0.6319139101E-007
     7    38    0.7235135175E-008
     8    38    0.3643124727E-007
     9    38    0.1280097779E-007
    10    38    0.1550249691E-008
    11    38    0.8793434344E-007
    12    38    0.4545225263E-007
    13    38   -0.3743236649E-008
    14    38    0.2367729781E-007
    15    38   -0.4166784029E-007
    16    38   -0.2241919474E-007
    17    38    0.2609921838E-008
    18    38   -0.1370269865E-007
    19    38   -0.3585378530E-007
    20    38    0.3625027957E-007
    21    38    0.1847705567E-007
    22    38   -0.6485109413E-007
    23    38   -0.7230192032E-008
    24    38   -0.8548884564E-007
    25    38    0.8075399446E-007
    26    38   -0.1246342711E-007
    27    38   -0.1806323546E-007
    28    38   -0.9975627260E-007
    29    38   -0.4299604527E-007
    30    38   -0.3281620234E-007
    31    38    0.7780782834E-007
    32    38   -0.7456814687E-007
    33    38    0.4900701529E-007
    34    38    0.8688170973E-007
    35    38    0.5219152855E-007
    36    38   -0.1245619476E-006
    37    38   -0.1723740207E-006
    38    38    0.9999998899E+000
     1    39    0.3102122018E-007
     2    39    0.4313579995E-007
     3    39   -0.4588722358E-007
     4    39   -0.1319186495E-006
     5    39    0.6256154836E-007
     6    39   -0.1564988748E-007
     7    39   -0.5773980747E-007
     8    39   -0.2950973755E-007
     9    39   -0.1291218518E-007
    10    39   -0.2101630937E-008
    11    39    0.1782538523E-006
    12    39   -0.1517204677E-007
    13    39   -0.1192428143E-006
    14    39    0.1743166556E-006
    15    39   -0.5148815443E-008
    16    39   -0.1112764294E-006
    17    39   -0.2465136477E-008
    18    39   -0.4433172689E-007
    19    39   -0.1780653111E-006
    20    39   -0.1217273085E-007
    21    39    0.1058189116E-006
    22    39   -0.4448265496E-008
    23    39    0.6526513993E-007
    24    39   -0.1166153846E-006
    25    39    0.1085353148E-006
    26    39    0.1329819804E-006
    27    39   -0.4609830531E-007
    28    39   -0.1480418944E-006
    29    39    0.5123664527E-008
    30    39   -0.1594546877E-006
    31    39   -0.4530214070E-007
    32    39   -0.7791634064E-007
    33    39   -0.2319721844E-006
    34    39    0.2684797039E-007
    35    39    0.1608731542E-006
    36    39   -0.9229354971E-007
    37    39    0.4053249052E-008
    38    39   -0.7143351084E-007
    39    39    0.9999996293E+000
     1    40    0.6359772185E-001
     2    40    0.5716112990E+000
     3    40   -0.3958024061E+000
     4    40    0.2171374507E+000
     5    40   -0.1434956253E-001
     6    40    0.1888046140E-001
     7    40    0.4950296289E+000
     8    40    0.6104636042E-002
     9    40   -0.8032185245E-002
    10    40   -0.2105960390E+000
    11    40    0.5048578714E-002
    12    40   -0.6642643066E-002
    13    40   -0.1741619405E+000
    14    40    0.1072119861E-001
    15    40   -0.4089154386E-003
    16    40   -0.1065480186E+000
    17    40    0.1410644211E-001
    18    40    0.1847738450E+000
    19    40    0.1136793066E-001
    20    40   -0.4335852584E-003
    21    40   -0.1129752518E+000
    22    40    0.1495737301E-001
    23    40    0.1959197790E+000
    24    40    0.8883251089E-002
    25    40   -0.5534301919E-003
    26    40   -0.2282864762E-002
    27    40    0.7393346745E-002
    28    40    0.7875397085E-001
    29    40   -0.9537988692E-002
    30    40   -0.1019220463E+000
    31    40    0.6267101953E-002
    32    40   -0.5073414225E-003
    33    40   -0.2352039274E-002
    34    40    0.1916044772E-003
    35    40    0.2715840251E-001
    36    40   -0.6609768072E-002
    37    40   -0.4053601604E-001
    38    40    0.5820961473E-002
    39    40    0.5382322000E-001
    40    40    0.9999997542E+000
     1    41   -0.2263232104E-001
     2    41   -0.2696566989E+000
     3    41    0.7410690980E-001
     4    41   -0.4869609755E+000
     5    41   -0.6574458818E-002
     6    41    0.8650371327E-002
     7    41    0.2268044695E+000
     8    41    0.4678155750E-002
     9    41   -0.6155296655E-002
    10    41   -0.1613870038E+000
    11    41   -0.1141761639E-001
    12    41    0.1502267719E-001
    13    41    0.3938771078E+000
    14    41    0.1785064663E-001
    15    41   -0.6808210751E-003
    16    41   -0.1774009489E+000
    17    41    0.2348701985E-001
    18    41    0.3076458032E+000
    19    41    0.9950620173E-002
    20    41   -0.3794820372E-003
    21    41   -0.9889015718E-001
    22    41    0.1309258067E-001
    23    41    0.1714937487E+000
    24    41    0.2004925354E-001
    25    41   -0.1249069381E-002
    26    41   -0.5152377894E-002
    27    41    0.1668659690E-001
    28    41    0.1777456653E+000
    29    41   -0.2152698239E-001
    30    41   -0.2300354428E+000
    31    41    0.1670184652E-001
    32    41   -0.1352070366E-002
    33    41   -0.6268172061E-002
    34    41    0.5106137779E-003
    35    41    0.7237713609E-001
    36    41   -0.1761500419E-001
    37    41   -0.1080284761E+000
    38    41    0.1551287102E-001
    39    41    0.1434388404E+000
    40    41    0.4375087121E-006
    41    41    0.9999991469E+000
     1    42    0.6359875523E-001
     2    42    0.5716126938E+000
     3    42   -0.3958073216E+000
     4    42    0.2171357289E+000
     5    42   -0.2871982414E+000
     6    42    0.3778681839E+000
     7    42   -0.1426479608E+000
     8    42    0.1221815204E+000
     9    42   -0.1607548631E+000
    10    42    0.6068604397E-001
    11    42    0.1010405191E+000
    12    42   -0.1329395041E+000
    13    42    0.5018548369E-001
    14    42   -0.6183335012E-001
    15    42   -0.1637938655E+000
    16    42    0.7961825241E-001
    17    42   -0.8135445478E-001
    18    42   -0.4688971510E-001
    19    42   -0.6556210727E-001
    20    42   -0.1736712533E+000
    21    42    0.8441947128E-001
    22    42   -0.8626041499E-001
    23    42   -0.4971734324E-001
    24    42   -0.5185944562E-002
    25    42    0.6388005819E-001
    26    42    0.8775249292E-001
    27    42    0.4614786626E-002
    28    42    0.4358563807E-001
    29    42    0.4844178838E-001
    30    42   -0.2728694617E-001
    31    42    0.9172345084E-002
    32    42    0.5927662735E-002
    33    42   -0.4206286968E-001
    34    42   -0.2744899741E-001
    35    42   -0.2399171868E-001
    36    42   -0.1363360413E-001
    37    42   -0.3189729222E-001
    38    42    0.3118957514E-001
    39    42   -0.2569959423E-002
    40    42    0.4260952144E+000
    41    42   -0.3381736945E+000
    42    42    0.9999997727E+000
     1    43   -0.2263140377E-001
     2    43   -0.2696590272E+000
     3    43    0.7410235604E-001
     4    43   -0.4869629489E+000
     5    43   -0.1315848777E+000
     6    43    0.1731269101E+000
     7    43   -0.6535660492E-001
     8    43    0.9363430316E-001
     9    43   -0.1231951499E+000
    10    43    0.4650707642E-001
    11    43   -0.2285146579E+000
    12    43    0.3006578668E+000
    13    43   -0.1135002711E+000
    14    43   -0.1029524136E+000
    15    43   -0.2727164892E+000
    16    43    0.1325642205E+000
    17    43   -0.1354550257E+000
    18    43   -0.7807129339E-001
    19    43   -0.5738796538E-001
    20    43   -0.1520181136E+000
    21    43    0.7389424416E-001
    22    43   -0.7550561335E-001
    23    43   -0.4351865737E-001
    24    43   -0.1170462902E-001
    25    43    0.1441763189E+000
    26    43    0.1980560152E+000
    27    43    0.1041552257E-001
    28    43    0.9837204871E-001
    29    43    0.1093323745E+000
    30    43   -0.6158618576E-001
    31    43    0.2444440536E-001
    32    43    0.1579725646E-001
    33    43   -0.1120978473E+000
    34    43   -0.7315178815E-001
    35    43   -0.6393811938E-001
    36    43   -0.3633360476E-001
    37    43   -0.8500651752E-001
    38    43    0.8312043741E-001
    39    43   -0.6848981042E-002
    40    43   -0.3381736917E+000
    41    43    0.2164886902E+000
    42    43    0.4405302252E-006
    43    43    0.9999992826E+000
