     1     1   -0.1877846408E+002
     1     2    0.1488588522E-002
     2     2    0.4781979352E+000
     1     3    0.4040984315E-002
     2     3    0.4090282550E+000
     3     3   -0.7379249501E+000
     1     4   -0.7842477636E-003
     2     4   -0.4434223840E+000
     3     4   -0.1426259794E+000
     4     4    0.4966185972E+000
     1     5   -0.3955098698E-002
     2     5    0.7295240626E-001
     3     5   -0.2469475319E-001
     4     5   -0.1874859752E-001
     5     5    0.7358584479E+000
     1     6    0.5203890448E-002
     2     6   -0.9599580565E-001
     3     6    0.3249315509E-001
     4     6    0.2466322667E-001
     5     6    0.6334859945E-001
     6     6    0.7006457998E+000
     1     7    0.4623246250E-002
     2     7   -0.8528110679E-001
     3     7    0.2886179745E-001
     4     7    0.2189400396E-001
     5     7   -0.2023199351E-001
     6     7    0.2661935791E-001
     7     7    0.6288349678E+000
     1     8   -0.8782627701E-002
     2     8   -0.9353022487E-002
     3     8    0.4484659692E-001
     4     8    0.4186860554E-002
     5     8    0.5523521745E+000
     6     8   -0.1693566917E-001
     7     8    0.5391399359E-002
     8     8    0.2471361735E-002
     1     9    0.1155569907E-001
     2     9    0.1230728593E-001
     3     9   -0.5900810995E-001
     4     9   -0.5506974385E-002
     5     9   -0.1693566917E-001
     6     9    0.5617649913E+000
     7     9   -0.7093504026E-002
     8     9    0.2344056112E-001
     9     9   -0.1055568564E-001
     1    10    0.1026619362E-001
     2    10    0.1093302606E-001
     3    10   -0.5241259376E-001
     4    10   -0.4887040075E-002
     5    10    0.5391399359E-002
     6    10   -0.7093504026E-002
     7    10    0.5809394786E+000
     8    10   -0.7557375739E-002
     9    10    0.9943099002E-002
    10    10   -0.3720620288E-001
     1    11   -0.1466728740E-002
     2    11    0.1357094651E-001
     3    11   -0.1536112487E-001
     4    11   -0.2652836198E-001
     5    11    0.4905171730E+000
     6    11    0.1638962011E-001
     7    11   -0.5139126846E-002
     8    11    0.2418742090E+000
     9    11   -0.9426317905E-002
    10    11    0.3006866077E-002
    11    11    0.4876439081E+000
     1    12    0.1929849616E-002
     2    12   -0.1784983438E-001
     3    12    0.2021177955E-001
     4    12    0.3493432727E-001
     5    12    0.1638962011E-001
     6    12    0.4814183310E+000
     7    12    0.6761464388E-002
     8    12   -0.9426317905E-002
     9    12    0.2471097912E+000
    10    12   -0.3956066903E-002
    11    12    0.1839117759E-001
    12    12    0.4773774587E+000
     1    13    0.1714496892E-002
     2    13   -0.1584067823E-001
     3    13    0.1795227930E-001
     4    13    0.3109244026E-001
     5    13   -0.5139126846E-002
     6    13    0.6761464388E-002
     7    13    0.4629722399E+000
     8    13    0.3006866076E-002
     9    13   -0.3956066903E-002
    10    13    0.2577815642E+000
    11    13   -0.5850001563E-002
    12    13    0.7698048117E-002
    13    13    0.4564605720E+000
     1    14    0.4048731853E-003
     2    14    0.1840342762E-001
     3    14   -0.1664616301E-001
     4    14   -0.7724690998E-002
     5    14    0.8791826642E-002
     6    14    0.2216621838E-001
     7    14   -0.3542052920E-001
     8    14   -0.2028966863E-001
     9    14   -0.1131767636E-001
    10    14    0.3140946597E-001
    11    14    0.3984922868E-002
    12    14    0.9126570407E-002
    13    14   -0.1491177982E-001
    14    14    0.1685141309E+001
     1    15    0.1265594515E-002
     2    15    0.5783582379E-001
     3    15   -0.5190431215E-001
     4    15   -0.2440835496E-001
     5    15   -0.7382561244E-001
     6    15    0.8109365305E-001
     7    15   -0.2216621838E-001
     8    15    0.5510504599E-001
     9    15   -0.5442686514E-001
    10    15    0.1131767636E-001
    11    15   -0.3083258470E-001
    12    15    0.3373349003E-001
    13    15   -0.9126570407E-002
    14    15   -0.3147790762E-001
    15    15    0.1664240350E+001
     1    16    0.2113262135E-003
     2    16    0.9621502300E-002
     3    16   -0.8677962504E-002
     4    16   -0.4045211252E-002
     5    16    0.7738577902E-002
     6    16   -0.6015437069E-001
     7    16    0.7609446572E-001
     8    16    0.4004527397E-002
     9    16    0.5106286386E-001
    10    16   -0.4764229851E-001
    11    16    0.3009797865E-002
    12    16   -0.2526180543E-001
    13    16    0.3156082663E-001
    14    16    0.3777706595E-002
    15    16    0.4105723132E-001
    16    16    0.1665466734E+001
     1    17    0.5327947118E-003
     2    17    0.2421354049E-001
     3    17   -0.2190117929E-001
     4    17   -0.1016349739E-001
     5    17   -0.2216621838E-001
     6    17    0.3525026761E-002
     7    17   -0.4660807589E-001
     8    17    0.1131767636E-001
     9    17    0.1400098249E-001
    10    17    0.4132850738E-001
    11    17   -0.9126570407E-002
    12    17    0.1086210951E-002
    13    17   -0.1961987361E-001
    14    17   -0.3451022168E-001
    15    17   -0.3571324201E-001
    16    17    0.2274563074E-001
    17    17    0.1665961624E+001
     1    18   -0.1069538441E-002
     2    18   -0.4881049698E-001
     3    18    0.4387581306E-001
     4    18    0.2056862734E-001
     5    18   -0.3226951375E-001
     6    18    0.1360876827E-001
     7    18   -0.1194826274E+000
     8    18    0.2995344409E-001
     9    18   -0.6888269304E-002
    10    18    0.7623019548E-001
    11    18   -0.1360858739E-001
    12    18    0.5606355546E-002
    13    18   -0.4959382144E-001
    14    18   -0.1035492578E-001
    15    18   -0.3985647273E-001
    16    18    0.7249071679E-001
    17    18   -0.3361561735E-002
    18    18    0.1617085185E+001
     1    19   -0.3500408493E-003
     2    19    0.1693207484E-001
     3    19    0.1084762914E-002
     4    19   -0.8033690846E-003
     5    19    0.1186670082E-001
     6    19    0.1613874555E-001
     7    19   -0.3031765656E-001
     8    19    0.1145380100E-001
     9    19   -0.1463553312E-003
    10    19   -0.9456819296E-002
    11    19   -0.5634188801E-002
    12    19    0.5298368334E-003
    13    19    0.4101215291E-002
    14    19   -0.1144177918E+001
    15    19   -0.9503889504E-002
    16    19    0.3727744674E-002
    17    19   -0.7464601363E-002
    18    19   -0.3819604358E-002
    19    19    0.1898266086E+001
     1    20   -0.1101395080E-002
     2    20    0.5266458241E-001
     3    20    0.3116918239E-002
     4    20   -0.2902494391E-002
     5    20   -0.5963231039E-001
     6    20    0.6336354897E-001
     7    20   -0.1613874555E-001
     8    20   -0.1216441858E-001
     9    20    0.8907999198E-002
    10    20    0.1463553312E-003
    11    20    0.4736523816E-002
    12    20   -0.2962953046E-002
    13    20   -0.5298368334E-003
    14    20   -0.9503889504E-002
    15    20   -0.1159135572E+001
    16    20    0.1225403214E-001
    17    20   -0.1179642208E-001
    18    20   -0.9129392399E-002
    19    20   -0.1976360846E-001
    20    20    0.1888204993E+001
     1    21   -0.1831605369E-003
     2    21    0.8823457456E-002
     3    21    0.5499933483E-003
     4    21   -0.4369113855E-003
     5    21    0.2842994789E-002
     6    21   -0.5074565482E-001
     7    21    0.5832678513E-001
     8    21   -0.5861301747E-002
     9    21   -0.1441278939E-001
    10    21    0.5872427986E-002
    11    21    0.3073098375E-002
    12    21    0.6081973862E-002
    13    21   -0.1494267939E-002
    14    21    0.3727744674E-002
    15    21    0.1225403214E-001
    16    21   -0.1153981019E+001
    17    21    0.7110989799E-002
    18    21    0.2196424245E-001
    19    21    0.1423889134E-002
    20    21    0.2563747932E-001
    21    21    0.1887411962E+001
     1    22   -0.4606568515E-003
     2    22    0.2227769824E-001
     3    22    0.1427093132E-002
     4    22   -0.1056586254E-002
     5    22   -0.1613874555E-001
     6    22   -0.2898899749E-002
     7    22   -0.3989775126E-001
     8    22    0.1463553312E-003
     9    22   -0.1153533345E-001
    10    22   -0.1244245495E-001
    11    22   -0.5298368334E-003
    12    22    0.5927891853E-002
    13    22    0.5404525260E-002
    14    22   -0.7464601363E-002
    15    22   -0.1179642208E-001
    16    22    0.7110989799E-002
    17    22   -0.1148329115E+001
    18    22   -0.3751878186E-002
    19    22   -0.2271266089E-001
    20    22   -0.2209390752E-001
    21    22    0.1405753959E-001
    22    22    0.1885633266E+001
     1    23    0.9294934943E-003
     2    23   -0.4456425598E-001
     3    23   -0.2683893983E-002
     4    23    0.2348071766E-002
     5    23   -0.2812168099E-001
     6    23    0.9867279565E-002
     7    23   -0.9205715421E-001
     8    23   -0.9603252327E-002
     9    23   -0.1390181812E-003
    10    23   -0.1025287609E-001
    11    23    0.4184500276E-002
    12    23    0.3340007219E-003
    13    23    0.2881851044E-002
    14    23   -0.3819604358E-002
    15    23   -0.9129392399E-002
    16    23    0.2196424245E-001
    17    23   -0.3751878186E-002
    18    23   -0.1170334473E+001
    19    23   -0.6087075091E-002
    20    23   -0.2573898254E-001
    21    23    0.4530591143E-001
    22    23   -0.9741078803E-003
    23    23    0.1857640772E+001
     1    24   -0.5869119390E-005
     2    24   -0.2092414929E-002
     3    24    0.1296493135E-002
     4    24    0.8715476163E-003
     5    24    0.2320070428E-001
     6    24    0.2756318538E-002
     7    24    0.1716704266E-002
     8    24   -0.1609960947E-001
     9    24   -0.1294791153E-002
    10    24   -0.3102381251E-002
    11    24    0.9141045919E-002
    12    24    0.1139638880E-002
    13    24    0.5737274610E-003
    14    24   -0.7087021617E-001
    15    24   -0.8956778027E-002
    16    24    0.5182309973E-002
    17    24    0.8423805606E-002
    18    24   -0.4636831411E-001
    19    24   -0.1549229519E-001
    20    24   -0.3301712740E-002
    21    24    0.2323171532E-002
    22    24    0.2479768137E-002
    23    24   -0.9241774597E-002
    24    24    0.3100530562E+001
     1    25   -0.2653120036E-003
     2    25   -0.3613788160E-001
     3    25    0.2356132062E-001
     4    25    0.1485651203E-001
     5    25    0.3922953833E-001
     6    25   -0.4582152396E-001
     7    25    0.3918023257E-001
     8    25   -0.1890470454E-001
     9    25    0.2092999300E-001
    10    25   -0.2222786877E-001
    11    25    0.1560635500E-001
    12    25   -0.1824541445E-001
    13    25    0.1550786173E-001
    14    25    0.6779029912E-001
    15    25    0.2322825418E-001
    16    25   -0.1672948865E-001
    17    25    0.6798452931E-001
    18    25    0.1008178552E-001
    19    25    0.1679746719E-001
    20    25    0.1884310098E-001
    21    25   -0.7838083904E-002
    22    25    0.1919442774E-001
    23    25    0.4716446837E-002
    24    25   -0.9792029420E-002
    25    25    0.3101237285E+001
     1    26   -0.3205801133E-003
     2    26   -0.4869850416E-001
     3    26    0.3149301701E-001
     4    26    0.2007006109E-001
     5    26    0.4154617414E-001
     6    26   -0.8278706371E-001
     7    26    0.1891008884E-001
     8    26   -0.1760260582E-001
     9    26    0.4213021229E-001
    10    26   -0.7132955111E-002
    11    26    0.1660247655E-001
    12    26   -0.3298216519E-001
    13    26    0.7571079359E-002
    14    26    0.3859588322E-001
    15    26    0.1172433983E+000
    16    26   -0.7876583236E-001
    17    26    0.3122756941E-001
    18    26    0.1581109073E-001
    19    26    0.1309213279E-001
    20    26    0.3576602885E-001
    21    26   -0.2306576455E-001
    22    26    0.1348995376E-001
    23    26    0.9017825599E-002
    24    26    0.2684697206E-001
    25    26   -0.4847224336E-001
    26    26    0.3089289563E+001
     1    27   -0.3808356601E-004
     2    27   -0.6831524879E-002
     3    27    0.4369074933E-002
     4    27    0.2821980594E-002
     5    27    0.2114190779E-001
     6    27   -0.8520847536E-002
     7    27    0.3428314447E-002
     8    27   -0.1354371261E-001
     9    27    0.4837397316E-002
    10    27   -0.3401542821E-002
    11    27    0.8357578135E-002
    12    27   -0.3348730771E-002
    13    27    0.1275008033E-002
    14    27    0.1358613345E-001
    15    27    0.2795092983E-001
    16    27    0.6965311064E-001
    17    27   -0.4309284633E-001
    18    27    0.4154079689E-002
    19    27    0.4502513815E-002
    20    27    0.5227506257E-002
    21    27    0.1322573637E-001
    22    27   -0.8982196899E-002
    23    27    0.8543530971E-003
    24    27    0.1546270460E-002
    25    27   -0.1884416931E-001
    26    27    0.1611088490E-001
    27    27    0.3115127506E+001
     1    28   -0.4840375700E-003
     2    28   -0.6975135499E-001
     3    28    0.4528134234E-001
     4    28    0.2871534561E-001
     5    28    0.1891008884E-001
     6    28   -0.4136423605E-001
     7    28   -0.6245367498E-001
     8    28   -0.7132955111E-002
     9    28    0.2060484285E-001
    10    28    0.2867972450E-001
    11    28    0.7571079359E-002
    12    28   -0.1647208716E-001
    13    28   -0.2492397944E-001
    14    28    0.6429064930E-002
    15    28    0.3122756941E-001
    16    28    0.5046074299E-001
    17    28    0.6878883119E-001
    18    28   -0.8771513322E-001
    19    28    0.4738217490E-002
    20    28    0.1348995376E-001
    21    28    0.1173728327E-001
    22    28    0.1449184984E-001
    23    28   -0.3240765495E-001
    24    28   -0.7684701598E-002
    25    28   -0.4523805997E-001
    26    28   -0.3831455904E-001
    27    28    0.4879441498E-002
    28    28    0.3055840788E+001
     1    29   -0.1535025545E-003
     2    29   -0.2218158278E-001
     3    29    0.1439754015E-001
     4    29    0.9131670806E-002
     5    29    0.4593180656E-001
     6    29   -0.7748921910E-002
     7    29    0.7757376506E-002
     8    29   -0.2539944642E-001
     9    29   -0.2119401398E-002
    10    29   -0.6034102142E-003
    11    29    0.1829939548E-001
    12    29   -0.3219517494E-002
    13    29    0.3213258402E-002
    14    29    0.1008178552E-001
    15    29    0.7566642076E-001
    16    29   -0.1583534537E-001
    17    29    0.6537827796E-001
    18    29    0.6797168292E-001
    19    29    0.4716446837E-002
    20    29    0.2287135479E-001
    21    29   -0.7386153502E-002
    22    29    0.1683921774E-001
    23    29    0.1683393445E-001
    24    29    0.3238972553E-001
    25    29   -0.2014616074E-001
    26    29   -0.5474412791E-001
    27    29    0.3139996504E-001
    28    29    0.3524587739E-002
    29    29    0.3085450877E+001
     1    30    0.5044648511E-003
     2    30    0.7365329118E-001
     3    30   -0.4776842850E-001
     4    30   -0.3033143421E-001
     5    30   -0.2428389158E-001
     6    30    0.1918232766E-001
     7    30    0.9840858710E-001
     8    30    0.1265894329E-001
     9    30   -0.7964154498E-002
    10    30   -0.4711159004E-001
    11    30   -0.9672466731E-002
    12    30    0.7683075000E-002
    13    30    0.3921192819E-001
    14    30   -0.4221027797E-001
    15    30   -0.2488729241E-001
    16    30   -0.5749608724E-001
    17    30   -0.8808678769E-002
    18    30    0.1266119552E+000
    19    30   -0.7345817742E-002
    20    30   -0.1018169357E-001
    21    30   -0.2280734336E-001
    22    30   -0.3271937345E-002
    23    30    0.4161151439E-001
    24    30    0.4068480664E-002
    25    30    0.3936275409E-001
    26    30    0.1081634103E-001
    27    30    0.1657079563E-001
    28    30    0.9225636890E-001
    29    30    0.1333794440E-001
    30    30    0.3041962393E+001
     1    31   -0.6459476718E-004
     2    31   -0.1330029566E-001
     3    31    0.8084345041E-002
     4    31    0.5764896504E-002
     5    31    0.3694637865E-001
     6    31   -0.8593909995E-002
     7    31   -0.5106284735E-002
     8    31   -0.1857053608E-001
     9    31    0.3268943665E-002
    10    31    0.2041449064E-002
    11    31    0.1480452843E-001
    12    31   -0.3539161922E-002
    13    31   -0.2112261886E-002
    14    31   -0.5037722872E-001
    15    31    0.1516853866E-001
    16    31    0.5002289184E-002
    17    31    0.4386759057E-002
    18    31    0.8500684177E-002
    19    31   -0.1354093039E-001
    20    31    0.6391687935E-002
    21    31    0.1675970809E-002
    22    31    0.1873299346E-002
    23    31    0.9366704442E-003
    24    31   -0.9582147028E-001
    25    31   -0.1198566204E-001
    26    31    0.1139155637E-001
    27    31   -0.6225302079E-002
    28    31   -0.1046487260E-001
    29    31   -0.1656893604E-001
    30    31    0.4933191563E-001
    31    31    0.5162323893E+001
     1    32   -0.4319529388E-004
     2    32   -0.4573455137E-002
     3    32    0.3005630556E-002
     4    32    0.2012903808E-002
     5    32    0.1195399839E-001
     6    32   -0.4689565380E-002
     7    32   -0.1032400068E-001
     8    32   -0.5734927909E-002
     9    32    0.1726928234E-002
    10    32    0.5911995625E-002
    11    32    0.4825460142E-002
    12    32   -0.1952352295E-002
    13    32   -0.4065015524E-002
    14    32   -0.1066803328E-001
    15    32   -0.2088985943E-002
    16    32   -0.2214468702E-002
    17    32   -0.1511644721E-001
    18    32    0.3490995114E-001
    19    32   -0.2117685523E-002
    20    32    0.3018738964E-002
    21    32   -0.1166334621E-002
    22    32   -0.4096489543E-002
    23    32    0.9188141560E-002
    24    32    0.5660452618E-001
    25    32   -0.3545497675E-001
    26    32   -0.1398583346E-001
    27    32   -0.3255746572E-003
    28    32    0.1019705818E-001
    29    32   -0.6445459138E-001
    30    32    0.8451407668E-003
    31    32   -0.1028988533E-001
    32    32    0.5187165161E+001
     1    33    0.1472163535E-003
     2    33    0.3847492945E-001
     3    33   -0.2288099959E-001
     4    33   -0.1657191310E-001
     5    33   -0.4436979376E-001
     6    33    0.5204766844E-001
     7    33   -0.2619785158E-001
     8    33    0.1916391633E-001
     9    33   -0.2191180585E-001
    10    33    0.1208021410E-001
    11    33   -0.1805140100E-001
    12    33    0.2122636137E-001
    13    33   -0.1057405769E-001
    14    33   -0.1179027156E-001
    15    33   -0.6138684331E-001
    16    33    0.3089239619E-001
    17    33   -0.5943921048E-001
    18    33   -0.5910255617E-002
    19    33   -0.6506308735E-002
    20    33   -0.2472268804E-001
    21    33    0.1199072509E-001
    22    33   -0.1975371256E-001
    23    33   -0.3107820332E-002
    24    33    0.3860095124E-001
    25    33    0.1011107620E+000
    26    33    0.3228720905E-001
    27    33    0.5773938061E-002
    28    33    0.7685554699E-001
    29    33    0.1964742142E-001
    30    33   -0.2066819739E-001
    31    33    0.4262462548E-001
    32    33   -0.1605201811E-001
    33    33    0.5161109363E+001
     1    34    0.9571104525E-004
     2    34    0.2357769272E-001
     3    34   -0.1410275778E-001
     4    34   -0.1017657311E-001
     5    34   -0.1351098353E-001
     6    34    0.4561635534E-001
     7    34   -0.4712104487E-002
     8    34    0.4373931801E-002
     9    34   -0.2038056679E-001
    10    34    0.1038345207E-002
    11    34   -0.5640414892E-002
    12    34    0.1851153664E-001
    13    34   -0.2007085544E-002
    14    34   -0.6112228716E-003
    15    34   -0.3613773788E-001
    16    34    0.6569661950E-001
    17    34   -0.1248200928E-001
    18    34    0.2740422555E-002
    19    34   -0.1814928366E-002
    20    34   -0.1546603001E-001
    21    34    0.2029348875E-001
    22    34   -0.6360661516E-002
    23    34   -0.1291159837E-002
    24    34    0.3032319474E-003
    25    34    0.3304261454E-001
    26    34    0.1099739510E+000
    27    34   -0.6370534057E-001
    28    34    0.2581950160E-001
    29    34    0.8080480195E-002
    30    34    0.2765928280E-002
    31    34   -0.3888596451E-002
    32    34    0.2059781852E-001
    33    34   -0.3700707103E-001
    34    34    0.5188520105E+001
     1    35   -0.2194403500E-004
     2    35   -0.2690784833E-002
     3    35    0.1720966150E-002
     4    35    0.1173140281E-002
     5    35   -0.2875722201E-001
     6    35    0.2353549228E-001
     7    35   -0.5929103527E-001
     8    35    0.1284955219E-001
     9    35   -0.9351464040E-002
    10    35    0.2535794081E-001
    11    35   -0.1165851999E-001
    12    35    0.9641584205E-002
    13    35   -0.2414532189E-001
    14    35   -0.1845757422E-001
    15    35   -0.5362081383E-001
    16    35    0.3220050839E-001
    17    35   -0.2552382834E-001
    18    35   -0.5855630648E-001
    19    35   -0.8121853184E-002
    20    35   -0.1828397518E-001
    21    35    0.1375465239E-001
    22    35   -0.9185858485E-002
    23    35   -0.2426099060E-001
    24    35   -0.6234038481E-002
    25    35    0.3582025568E-001
    26    35    0.5334552401E-001
    27    35    0.7480749657E-001
    28    35   -0.5634151608E-001
    29    35    0.2683043927E-001
    30    35    0.3383158724E-001
    31    35    0.1769114788E-002
    32    35    0.5467975404E-002
    33    35   -0.3907846569E-001
    34    35    0.5379317783E-002
    35    35    0.5170767778E+001
     1    36    0.8073549816E-004
     2    36    0.1746075930E-001
     3    36   -0.1056090301E-001
     4    36   -0.7557539330E-002
     5    36   -0.4712104487E-002
     6    36    0.4248072985E-001
     7    36    0.2503260248E-002
     8    36    0.1038345207E-002
     9    36   -0.2061560440E-001
    10    36   -0.8369372727E-003
    11    36   -0.2007085544E-002
    12    36    0.1708808512E-001
    13    36    0.1061946140E-002
    14    36    0.3690459490E-002
    15    36   -0.1248200928E-001
    16    36    0.2684382219E-001
    17    36    0.2462797566E-001
    18    36    0.7360383800E-002
    19    36   -0.4328247959E-003
    20    36   -0.6360661516E-002
    21    36    0.7846481300E-002
    22    36    0.6348245548E-002
    23    36    0.3533301442E-002
    24    36   -0.2066165369E-002
    25    36    0.2169956063E-002
    26    36    0.2581950160E-001
    27    36    0.4327452429E-001
    28    36    0.7650137142E-001
    29    36   -0.5742555818E-001
    30    36   -0.7336190273E-002
    31    36    0.6401592867E-003
    32    36   -0.7077919072E-003
    33    36   -0.3711776501E-001
    34    36   -0.3033849648E-001
    35    36    0.4616064071E-002
    36    36    0.5162226587E+001
     1    37    0.2432344967E-003
     2    37    0.6271259021E-001
     3    37   -0.3737328976E-001
     4    37   -0.2704181644E-001
     5    37   -0.3817464005E-001
     6    37    0.3916922210E-001
     7    37    0.6404167123E-001
     8    37    0.1668225869E-001
     9    37   -0.1617191244E-001
    10    37   -0.2835575906E-001
    11    37   -0.1553185985E-001
    12    37    0.1602855758E-001
    13    37    0.2599772031E-001
    14    37   -0.5910255617E-002
    15    37   -0.7110349768E-001
    16    37   -0.3117691804E-001
    17    37    0.2337573959E-002
    18    37    0.4234821991E-001
    19    37   -0.3107820332E-002
    20    37   -0.2488468670E-001
    21    37   -0.9471900678E-002
    22    37   -0.2101413841E-002
    23    37    0.1838669114E-001
    24    37   -0.6496600980E-002
    25    37    0.1964742142E-001
    26    37    0.8386808015E-001
    27    37    0.5827859906E-002
    28    37    0.9881430415E-001
    29    37    0.8824283042E-001
    30    37   -0.9352370298E-001
    31    37    0.1511540270E-001
    32    37    0.4389953356E-001
    33    37   -0.2814514518E-001
    34    37   -0.4356023563E-001
    35    37    0.3433527059E-001
    36    37   -0.2163840179E-002
    37    37    0.5124469950E+001
     1    38   -0.1321769905E-003
     2    38   -0.3200808517E-001
     3    38    0.1915887596E-001
     4    38    0.1381201594E-001
     5    38    0.3463124881E-001
     6    38   -0.5001026904E-001
     7    38    0.1176121576E-001
     8    38   -0.1515796456E-001
     9    38    0.2220723086E-001
    10    38   -0.5645003556E-002
    11    38    0.1407527710E-001
    12    38   -0.2029537744E-001
    13    38    0.4710025606E-002
    14    38    0.4215999630E-001
    15    38    0.4948365484E-001
    16    38   -0.6165924756E-002
    17    38   -0.1591220721E-001
    18    38    0.1435514817E-001
    19    38    0.1271727166E-001
    20    38    0.1983016175E-001
    21    38   -0.3389089286E-002
    22    38   -0.1132433677E-002
    23    38    0.3909571567E-002
    24    38    0.8451407668E-003
    25    38   -0.7754229867E-001
    26    38   -0.3656035146E-001
    27    38   -0.4797239274E-001
    28    38   -0.2492273699E-001
    29    38    0.3685605652E-001
    30    38    0.6847258212E-001
    31    38   -0.3435709022E-001
    32    38   -0.1483333780E-002
    33    38    0.6117286412E-001
    34    38    0.3564227369E-002
    35    38    0.2702578499E-001
    36    38    0.5271275226E-001
    37    38    0.3719260070E-001
    38    38    0.5158951631E+001
     1    39   -0.1712222839E-003
     2    39   -0.4438149930E-001
     3    39    0.2643068992E-001
     4    39    0.1913053828E-001
     5    39   -0.7894467308E-003
     6    39   -0.6815895469E-004
     7    39   -0.9516487024E-001
     8    39    0.3831156972E-003
     9    39    0.3179305994E-004
    10    39    0.4069777950E-001
    11    39   -0.3047292550E-003
    12    39   -0.4081227167E-004
    13    39   -0.3876046098E-001
    14    39   -0.1583534357E-001
    15    39   -0.7397970450E-003
    16    39    0.4699226231E-001
    17    39   -0.1256135471E-001
    18    39   -0.1031375536E+000
    19    39   -0.4458295793E-002
    20    39   -0.6221724770E-003
    21    39    0.2070705184E-001
    22    39   -0.5124633163E-002
    23    39   -0.3910345482E-001
    24    39    0.3770534796E-001
    25    39    0.1510510929E-001
    26    39    0.1130192146E-002
    27    39   -0.3281519845E-002
    28    39   -0.6798392063E-001
    29    39   -0.1707624101E-002
    30    39    0.1415862101E+000
    31    39   -0.4362855004E-002
    32    39   -0.2923756652E-001
    33    39   -0.5726974847E-002
    34    39   -0.6416015990E-003
    35    39   -0.4245738890E-001
    36    39    0.1071871588E-001
    37    39    0.7742619662E-001
    38    39    0.6364438196E-002
    39    39    0.5123502723E+001
     1    40   -0.1195829436E+001
     2    40   -0.1013280084E+000
     3    40    0.5351287358E+000
     4    40   -0.7403254303E-001
     5    40    0.2810666278E-001
     6    40   -0.3698708287E-001
     7    40   -0.8268785650E-001
     8    40   -0.2367408051E-001
     9    40    0.3115057678E-001
    10    40    0.2934002333E+000
    11    40    0.3108768610E-002
    12    40   -0.4082501736E-002
    13    40    0.3565879293E-001
    14    40   -0.2150675863E-002
    15    40    0.2922470860E-001
    16    40    0.3514998020E-001
    17    40   -0.2832222154E-002
    18    40   -0.7712550119E-001
    19    40   -0.2502744320E-003
    20    40    0.1453036226E-001
    21    40    0.1868484661E-002
    22    40   -0.3338935868E-003
    23    40   -0.1132114668E-001
    24    40   -0.9877836043E-003
    25    40   -0.7094825635E-002
    26    40   -0.2018309513E-001
    27    40   -0.2935944050E-002
    28    40   -0.3028579262E-001
    29    40   -0.9078139879E-002
    30    40    0.3588225918E-001
    31    40   -0.4496089595E-002
    32    40   -0.3136786554E-002
    33    40    0.1060565108E-001
    34    40    0.9722582996E-002
    35    40   -0.1714324645E-003
    36    40    0.5656972424E-002
    37    40    0.2305813991E-001
    38    40   -0.9411004180E-002
    39    40   -0.1489969500E-001
    40    40   -0.5084921590E+000
     1    41    0.4245872311E+000
     2    41   -0.3565919175E-001
     3    41   -0.2161822823E-001
     4    41   -0.2727359139E-001
     5    41   -0.2991408465E-001
     6    41    0.3936550700E-001
     7    41   -0.4097463233E-001
     8    41    0.4179736809E-002
     9    41   -0.5500744271E-002
    10    41    0.2779265778E+000
    11    41   -0.3723826103E-002
    12    41    0.4884723974E-002
    13    41    0.1074681553E+000
    14    41   -0.1260793296E-001
    15    41   -0.3042460361E-001
    16    41    0.8420026488E-002
    17    41   -0.1658879099E-001
    18    41    0.2326777011E-002
    19    41   -0.2589409048E-002
    20    41   -0.2275142296E-001
    21    41   -0.1385689866E-001
    22    41   -0.3404230375E-002
    23    41    0.3665965224E-001
    24    41    0.7818826715E-002
    25    41    0.1735517028E-001
    26    41    0.2182188147E-001
    27    41    0.8970779275E-002
    28    41    0.1271609538E+000
    29    41    0.3429892220E-002
    30    41   -0.1562904059E+000
    31    41    0.2346459671E-001
    32    41    0.3855120427E-002
    33    41   -0.2414437794E-001
    34    41   -0.1172335510E-001
    35    41    0.8223011446E-001
    36    41   -0.2631941181E-001
    37    41   -0.1499942558E+000
    38    41    0.3079674092E-001
    39    41    0.1796254859E+000
    40    41    0.2679203589E-001
    41    41    0.3684579416E+000
     1    42   -0.1195848803E+001
     2    42   -0.1012986557E+000
     3    42    0.5351300765E+000
     4    42   -0.7399574980E-001
     5    42    0.5651057379E-001
     6    42   -0.7436183805E-001
     7    42   -0.1626019680E-001
     8    42   -0.1752710035E+000
     9    42    0.2306079354E+000
    10    42   -0.6090452447E-001
    11    42   -0.1926370216E-001
    12    42    0.2535778894E-001
    13    42   -0.1669387975E-001
    14    42    0.2033835773E-001
    15    42    0.7987397389E-001
    16    42   -0.2256925390E-001
    17    42    0.2676028934E-001
    18    42   -0.5299338460E-002
    19    42    0.4538347101E-003
    20    42    0.1612833155E-001
    21    42    0.3190456448E-004
    22    42    0.5995299693E-003
    23    42   -0.9032526408E-002
    24    42   -0.4421689033E-002
    25    42   -0.1678849264E-001
    26    42   -0.2758410992E-001
    27    42   -0.6646771788E-002
    28    42   -0.2767704806E-001
    29    42   -0.9501058485E-002
    30    42    0.2811270248E-001
    31    42   -0.6939496858E-002
    32    42   -0.5579937085E-004
    33    42    0.1235148401E-001
    34    42    0.7339212347E-002
    35    42   -0.4674703823E-003
    36    42    0.8318629142E-002
    37    42    0.2050345845E-001
    38    42   -0.1216682887E-001
    39    42   -0.1478214916E-001
    40    42   -0.3724075992E+000
    41    42    0.9709614520E-001
    42    42   -0.5084073148E+000
     1    43    0.4245700296E+000
     2    43   -0.3565157087E-001
     3    43   -0.2161713021E-001
     4    43   -0.2732344526E-001
     5    43    0.1340649895E-001
     6    43   -0.1762933719E-001
     7    43    0.6028749483E-001
     8    43   -0.1571703745E+000
     9    43    0.2067876367E+000
    10    43   -0.9915954249E-001
    11    43   -0.6261625999E-001
    12    43    0.8236067100E-001
    13    43   -0.3008336140E-001
    14    43   -0.3082278675E-002
    15    43   -0.8976649652E-002
    16    43   -0.1602987735E-001
    17    43   -0.4054952991E-002
    18    43    0.3275552553E-001
    19    43   -0.1025366257E-001
    20    43   -0.4002720337E-001
    21    43    0.5816821536E-002
    22    43   -0.1349204901E-001
    23    43    0.1218238356E-001
    24    43   -0.2901428873E-002
    25    43    0.9626832548E-001
    26    43    0.1248758810E+000
    27    43    0.1041543370E-001
    28    43    0.8726070997E-001
    29    43    0.6469903251E-001
    30    43   -0.6897789846E-001
    31    43    0.3494180172E-001
    32    43    0.1924544264E-001
    33    43   -0.1435979616E+000
    34    43   -0.9061950694E-001
    35    43   -0.6861901178E-001
    36    43   -0.5022975943E-001
    37    43   -0.1214556063E+000
    38    43    0.1090488305E+000
    39    43    0.1279929888E-001
    40    43    0.9711407667E-001
    41    43    0.9551487568E-001
    42    43    0.2676566109E-001
    43    43    0.3685577683E+000
