     1     1    0.9999999031E+000
     1     2   -0.3064742594E-007
     2     2    0.1000000088E+001
     1     3   -0.4621815299E-007
     2     3    0.3815785874E-007
     3     3    0.1000000007E+001
     1     4    0.1129108256E-007
     2     4    0.2194310222E-006
     3     4   -0.2263588207E-006
     4     4    0.1000062253E+001
     1     5    0.5074169566E-007
     2     5    0.5200378817E-007
     3     5   -0.6899216996E-009
     4     5    0.9866521800E-007
     5     5    0.1000000053E+001
     1     6   -0.3552931770E-007
     2     6    0.2753806346E-008
     3     6    0.5708289056E-007
     4     6   -0.1696169889E-006
     5     6   -0.3265986529E-007
     6     6    0.1000000045E+001
     1     7   -0.1040526454E-006
     2     7   -0.8354568183E-008
     3     7    0.7011002580E-007
     4     7   -0.6082863487E-007
     5     7   -0.7235958583E-007
     6     7    0.3552703098E-007
     7     7    0.1000000081E+001
     1     8    0.9690395571E-007
     2     8   -0.1098703366E-007
     3     8   -0.5728210197E-007
     4     8   -0.1126326160E-005
     5     8   -0.4053925620E-007
     6     8   -0.4487371080E-007
     7     8   -0.6448048256E-007
     8     8    0.1000000045E+001
     1     9   -0.7676206934E-007
     2     9    0.7417969478E-007
     3     9    0.1306525379E-006
     4     9    0.1266047500E-005
     5     9   -0.4487371079E-007
     6     9    0.5704457782E-007
     7     9    0.4379650676E-007
     8     9   -0.9294624234E-007
     9     9    0.1000000304E+001
     1    10   -0.2032586995E-006
     2    10    0.7825462401E-007
     3    10    0.1646255398E-006
     4    10   -0.3213919082E-006
     5    10   -0.6448048255E-007
     6    10    0.4379650676E-007
     7    10    0.8002789061E-007
     8    10   -0.8267697536E-007
     9    10    0.8432031507E-007
    10    10    0.1000000337E+001
     1    11    0.2275561832E-007
     2    11   -0.9440823584E-007
     3    11    0.7793311529E-007
     4    11   -0.2111576982E-004
     5    11   -0.2260573972E-006
     6    11    0.2442587460E-007
     7    11    0.1821280565E-007
     8    11    0.3101445997E-005
     9    11   -0.4984931896E-007
    10    11   -0.2193435328E-006
    11    11    0.1000058152E+001
     1    12   -0.1703212591E-007
     2    12    0.1614820542E-006
     3    12   -0.5131124289E-007
     4    12    0.2464954529E-004
     5    12    0.2442587460E-007
     6    12   -0.1910193307E-006
     7    12   -0.4289075630E-007
     8    12   -0.4984932145E-007
     9    12    0.3011573727E-005
    10    12    0.2342891647E-006
    11    12   -0.7818094472E-006
    12    12    0.1000056003E+001
     1    13   -0.4741161849E-007
     2    13    0.4814982956E-007
     3    13    0.4116454883E-007
     4    13   -0.4609208202E-005
     5    13    0.1821280565E-007
     6    13   -0.4289075630E-007
     7    13   -0.3725626727E-006
     8    13   -0.2193435188E-006
     9    13    0.2342891647E-006
    10    13    0.4186426955E-005
    11    13   -0.3503056829E-005
    12    13    0.4078706452E-005
    13    13    0.1000077401E+001
     1    14    0.3243597067E-007
     2    14   -0.2829597735E-007
     3    14    0.2435065850E-007
     4    14    0.7332673955E-007
     5    14   -0.1860586613E-007
     6    14    0.5857737210E-007
     7    14    0.4096109198E-008
     8    14    0.1675392750E-007
     9    14    0.7284621676E-007
    10    14   -0.8382150119E-007
    11    14   -0.7286766942E-007
    12    14    0.3712322926E-007
    13    14    0.5511858153E-007
    14    14    0.9999998517E+000
     1    15   -0.4349335760E-007
     2    15   -0.6135632091E-008
     3    15    0.1514224194E-008
     4    15   -0.1025867480E-007
     5    15   -0.5125168994E-008
     6    15    0.2089897952E-007
     7    15   -0.5857737209E-007
     8    15   -0.2060688486E-007
     9    15    0.4747261014E-007
    10    15   -0.7284621677E-007
    11    15    0.2455938973E-007
    12    15    0.1621826916E-007
    13    15   -0.3712322926E-007
    14    15    0.8188645510E-008
    15    15    0.1000000017E+001
     1    16    0.3401722431E-008
     2    16   -0.1262432632E-007
     3    16   -0.7470461433E-007
     4    16   -0.2413454668E-007
     5    16    0.1968348762E-007
     6    16   -0.6855580082E-007
     7    16    0.6930908062E-007
     8    16   -0.7767530442E-008
     9    16   -0.1322225391E-006
    10    16    0.1759960183E-006
    11    16    0.5371541951E-007
    12    16   -0.2531365878E-007
    13    16    0.7185194883E-008
    14    16    0.4568725019E-007
    15    16   -0.2232498184E-009
    16    16    0.9999999870E+000
     1    17    0.2479252207E-007
     2    17   -0.3261243482E-007
     3    17   -0.8477141038E-008
     4    17    0.5335570373E-007
     5    17   -0.5857737210E-007
     6    17    0.4406469908E-007
     7    17    0.3074842676E-007
     8    17   -0.7284621676E-007
     9    17    0.9907783517E-007
    10    17    0.9438013856E-008
    11    17   -0.3712322925E-007
    12    17    0.3973980449E-007
    13    17    0.4929679263E-007
    14    17    0.2272904582E-007
    15    17    0.1034717317E-007
    16    17   -0.3339910720E-007
    17    17    0.9999999749E+000
     1    18    0.3454228962E-007
     2    18   -0.3115960599E-007
     3    18   -0.1761653166E-007
     4    18    0.2700846656E-007
     5    18    0.9097711981E-008
     6    18    0.1793679789E-007
     7    18   -0.9458801604E-007
     8    18    0.2289513383E-007
     9    18    0.1502244933E-007
    10    18   -0.1890022831E-006
    11    18    0.2170098505E-007
    12    18    0.1236870144E-007
    13    18   -0.4557298753E-007
    14    18    0.3607235306E-008
    15    18   -0.8529153470E-008
    16    18   -0.1947185210E-007
    17    18    0.1028709030E-007
    18    18    0.9999999958E+000
     1    19   -0.4110666287E-007
     2    19    0.1897904655E-006
     3    19    0.2815882296E-007
     4    19   -0.7245760597E-007
     5    19    0.2217305366E-006
     6    19   -0.6056656555E-007
     7    19   -0.1327910385E-006
     8    19    0.4064437439E-007
     9    19   -0.9225005060E-007
    10    19    0.4622057140E-007
    11    19    0.1235596382E-006
    12    19    0.1224782764E-007
    13    19    0.5500149177E-007
    14    19    0.1389299616E-006
    15    19   -0.1202151431E-007
    16    19   -0.4215400765E-007
    17    19   -0.3433614176E-007
    18    19   -0.3414450793E-007
    19    19    0.1000000307E+001
     1    20    0.5558095603E-007
     2    20   -0.9310251407E-008
     3    20    0.4208677623E-008
     4    20   -0.6261968377E-007
     5    20   -0.5722631533E-007
     6    20   -0.7829073049E-007
     7    20    0.6056656555E-007
     8    20    0.2237349721E-007
     9    20   -0.7697687486E-007
    10    20    0.9225005060E-007
    11    20    0.5959084509E-007
    12    20   -0.1158443696E-006
    13    20   -0.1224782764E-007
    14    20   -0.1202151430E-007
    15    20   -0.2187718493E-007
    16    20    0.5143212511E-008
    17    20    0.3776621198E-008
    18    20    0.2644382528E-007
    19    20   -0.8781091812E-007
    20    20    0.1000000031E+001
     1    21    0.1049990138E-009
     2    21   -0.7236998636E-007
     3    21    0.4972154761E-007
     4    21   -0.1644979096E-006
     5    21   -0.1705780867E-006
     6    21    0.2846780172E-007
     7    21   -0.3996634756E-007
     8    21   -0.2188620639E-007
     9    21    0.1818478242E-006
    10    21   -0.1829013042E-006
    11    21    0.2453961459E-006
    12    21    0.7251832492E-006
    13    21    0.1021514329E-006
    14    21   -0.4215400766E-007
    15    21    0.5143212514E-008
    16    21    0.2632204949E-007
    17    21    0.2873708160E-007
    18    21    0.4073877713E-007
    19    21   -0.1907704158E-006
    20    21    0.6785002861E-007
    21    21    0.1000000143E+001
     1    22   -0.3094843688E-007
     2    22    0.1126094583E-006
     3    22    0.3665581396E-007
     4    22    0.4898056354E-007
     5    22    0.6056656555E-007
     6    22   -0.1215813271E-006
     7    22   -0.7951626047E-007
     8    22    0.9225005061E-007
     9    22   -0.1115188001E-006
    10    22   -0.6697725630E-008
    11    22   -0.1224782763E-007
    12    22    0.9623334350E-007
    13    22    0.2119848147E-006
    14    22   -0.3433614176E-007
    15    22    0.3776621202E-008
    16    22    0.2873708160E-007
    17    22   -0.7951568980E-008
    18    22   -0.3462748970E-007
    19    22    0.6513376016E-007
    20    22   -0.1785866242E-007
    21    22   -0.5114606687E-007
    22    22    0.1000000219E+001
     1    23   -0.4002870863E-007
     2    23    0.7465632147E-008
     3    23    0.3093259769E-007
     4    23    0.3065515314E-006
     5    23   -0.8436814375E-007
     6    23   -0.1114497261E-007
     7    23    0.1693729541E-006
     8    23   -0.7151717956E-008
     9    23   -0.1453561143E-007
    10    23    0.2459199260E-006
    11    23    0.4858814704E-006
    12    23    0.7619698480E-007
    13    23    0.4286150982E-007
    14    23   -0.3414450792E-007
    15    23    0.2644382527E-007
    16    23    0.4073877714E-007
    17    23   -0.3462748970E-007
    18    23   -0.1566983706E-007
    19    23   -0.1018450651E-006
    20    23    0.5303116499E-007
    21    23    0.2173756894E-007
    22    23    0.1313950429E-006
    23    23    0.1000000145E+001
     1    24    0.6481353824E-008
     2    24    0.3855286992E-008
     3    24   -0.4964823135E-007
     4    24   -0.3340821333E-007
     5    24    0.2853741288E-007
     6    24   -0.1327189041E-007
     7    24   -0.4128161504E-007
     8    24   -0.3465820111E-007
     9    24   -0.1218986988E-007
    10    24    0.1471808291E-007
    11    24    0.7590244863E-007
    12    24   -0.6851652058E-011
    13    24   -0.4684682947E-007
    14    24    0.7312998519E-007
    15    24    0.4691749238E-008
    16    24   -0.6410360155E-007
    17    24    0.4151292421E-008
    18    24    0.6033586437E-008
    19    24   -0.6721890465E-007
    20    24   -0.2939019854E-007
    21    24    0.6793387183E-007
    22    24    0.4013609649E-007
    23    24    0.2529573528E-007
    24    24    0.9999999273E+000
     1    25    0.3393301898E-007
     2    25   -0.6145426217E-007
     3    25   -0.2617344194E-007
     4    25    0.6202778205E-007
     5    25   -0.2300361020E-008
     6    25   -0.2240512359E-009
     7    25    0.1891361763E-007
     8    25    0.4747765784E-008
     9    25   -0.2606560624E-007
    10    25    0.2489877862E-007
    11    25   -0.3584463584E-007
    12    25    0.3939774043E-008
    13    25    0.1837832813E-007
    14    25   -0.8327967973E-008
    15    25   -0.2473433011E-007
    16    25    0.1074983195E-007
    17    25    0.7228437233E-008
    18    25    0.4172569905E-008
    19    25   -0.2295369576E-007
    20    25   -0.1349811104E-007
    21    25   -0.2348122261E-007
    22    25   -0.5133727101E-007
    23    25   -0.2743044475E-007
    24    25    0.7464102714E-008
    25    25    0.9999999508E+000
     1    26    0.2888024625E-007
     2    26    0.2614493412E-007
     3    26    0.4455261966E-007
     4    26    0.4113833892E-007
     5    26    0.1827039077E-007
     6    26    0.4944490009E-008
     7    26    0.2377620416E-007
     8    26    0.6995636595E-007
     9    26    0.3479175992E-009
    10    26    0.1124151958E-007
    11    26   -0.5374495554E-007
    12    26    0.2315736755E-007
    13    26    0.5857641982E-007
    14    26   -0.8641899611E-007
    15    26   -0.1200729647E-007
    16    26    0.3141770747E-007
    17    26   -0.5921308740E-008
    18    26   -0.4805701503E-008
    19    26    0.1038394278E-006
    20    26    0.4024004503E-007
    21    26   -0.3430439163E-007
    22    26    0.3946314074E-007
    23    26   -0.1447548998E-007
    24    26    0.6145338911E-007
    25    26    0.7318714742E-008
    26    26    0.9999999576E+000
     1    27   -0.6634216903E-008
     2    27    0.7347540157E-007
     3    27    0.5537032178E-007
     4    27   -0.8258037552E-007
     5    27    0.5451253660E-008
     6    27   -0.2670702383E-007
     7    27   -0.3159508280E-007
     8    27    0.1301234514E-007
     9    27    0.2175003137E-007
    10    27   -0.3724303869E-007
    11    27    0.3316944190E-007
    12    27   -0.4449222941E-007
    13    27   -0.5172875189E-007
    14    27    0.1436789834E-007
    15    27   -0.1691221529E-007
    16    27   -0.1172198566E-007
    17    27    0.7273547112E-009
    18    27   -0.1797889439E-007
    19    27    0.1193742902E-007
    20    27    0.1764481148E-007
    21    27    0.3409969793E-007
    22    27    0.6022355098E-007
    23    27    0.4073829747E-007
    24    27    0.7348190275E-008
    25    27    0.4116125834E-007
    26    27   -0.1205700165E-007
    27    27    0.1000000025E+001
     1    28    0.6484230972E-007
     2    28   -0.1826853618E-007
     3    28   -0.6710049038E-007
     4    28    0.7930279880E-008
     5    28    0.2377620417E-007
     6    28    0.1065072549E-007
     7    28    0.9589224276E-009
     8    28    0.1124151957E-007
     9    28   -0.2923433448E-007
    10    28    0.2448777011E-007
    11    28    0.5857641981E-007
    12    28    0.2272326252E-007
    13    28   -0.5701504104E-008
    14    28    0.8824981912E-007
    15    28   -0.5921308737E-008
    16    28   -0.3553563529E-007
    17    28   -0.6678011867E-007
    18    28    0.1886377811E-008
    19    28   -0.1297661109E-006
    20    28    0.3946314074E-007
    21    28    0.1166045542E-006
    22    28    0.6288182334E-007
    23    28   -0.2248261770E-007
    24    28   -0.6898283828E-007
    25    28    0.2999576204E-007
    26    28    0.7701531567E-008
    27    28    0.1581265757E-007
    28    28    0.9999998906E+000
     1    29    0.1241236168E-007
     2    29   -0.4250839694E-007
     3    29   -0.1210359958E-007
     4    29    0.4273478434E-007
     5    29   -0.1359574183E-007
     6    29    0.2111774950E-007
     7    29    0.5338264101E-007
     8    29   -0.4960182604E-008
     9    29   -0.1338810222E-007
    10    29    0.4395501668E-007
    11    29    0.1836154509E-007
    12    29    0.5003954030E-007
    13    29    0.5866465510E-007
    14    29    0.4172569890E-008
    15    29   -0.1507040893E-007
    16    29   -0.2804061282E-007
    17    29   -0.8939258992E-008
    18    29   -0.9288263419E-008
    19    29   -0.2743044475E-007
    20    29    0.2502467527E-007
    21    29    0.2648632894E-007
    22    29   -0.5895522228E-007
    23    29   -0.6914245973E-008
    24    29   -0.2718777284E-007
    25    29    0.3386338757E-007
    26    29   -0.1715022787E-007
    27    29    0.2854211228E-008
    28    29   -0.6257019985E-007
    29    29    0.9999999713E+000
     1    30   -0.5135128149E-007
     2    30   -0.1440894992E-007
     3    30   -0.1447158870E-007
     4    30   -0.5175490095E-007
     5    30    0.1974240596E-007
     6    30    0.2085425351E-007
     7    30    0.2829673717E-007
     8    30    0.1178604891E-008
     9    30    0.1988282769E-007
    10    30    0.7149522661E-007
    11    30    0.1108304602E-006
    12    30    0.9316233859E-008
    13    30   -0.5621205056E-007
    14    30    0.1080952493E-006
    15    30   -0.1096507049E-007
    16    30   -0.5506995256E-007
    17    30    0.3907671306E-008
    18    30   -0.2797514075E-007
    19    30   -0.1900266968E-006
    20    30    0.4657632218E-008
    21    30    0.7771720043E-007
    22    30   -0.1629404262E-007
    23    30    0.5874657902E-007
    24    30   -0.7604286595E-007
    25    30    0.2046882126E-007
    26    30    0.6303298030E-007
    27    30   -0.1044869381E-007
    28    30   -0.7904019901E-007
    29    30   -0.1406710604E-007
    30    30    0.9999998548E+000
     1    31   -0.6562188121E-009
     2    31   -0.2213494655E-007
     3    31   -0.1412498349E-007
     4    31   -0.4616742393E-007
     5    31   -0.3618626100E-008
     6    31   -0.4176305636E-008
     7    31   -0.1104151485E-007
     8    31    0.1226162231E-008
     9    31   -0.5659108505E-008
    10    31   -0.2913694694E-007
    11    31    0.5372534830E-007
    12    31   -0.2389792177E-007
    13    31   -0.6887412849E-007
    14    31    0.4810812976E-007
    15    31   -0.8594906705E-008
    16    31   -0.1567651684E-007
    17    31    0.3850137196E-007
    18    31   -0.1791413858E-007
    19    31   -0.1385522553E-006
    20    31    0.2895230871E-007
    21    31    0.5644988862E-007
    22    31   -0.8231080366E-007
    23    31    0.1227621809E-007
    24    31   -0.1887698629E-008
    25    31    0.5980948521E-008
    26    31    0.1974634245E-007
    27    31    0.4611164433E-008
    28    31    0.1655483365E-007
    29    31    0.3953586327E-007
    30    31   -0.7156719625E-007
    31    31    0.9999999819E+000
     1    32    0.6880063666E-008
     2    32    0.4859824570E-007
     3    32    0.4231403236E-007
     4    32   -0.8100512818E-008
     5    32    0.5149619051E-007
     6    32    0.1380554560E-007
     7    32   -0.4980110638E-007
     8    32    0.3807647338E-007
     9    32    0.1011986542E-007
    10    32   -0.2042420509E-007
    11    32    0.3924983130E-007
    12    32    0.4300244947E-007
    13    32   -0.2033045066E-007
    14    32   -0.1938664278E-008
    15    32   -0.3271631371E-007
    16    32   -0.8452593197E-008
    17    32   -0.3607039385E-007
    18    32   -0.3805328451E-007
    19    32    0.4188038038E-007
    20    32    0.1917653703E-007
    21    32   -0.1182945580E-008
    22    32    0.1307816963E-006
    23    32    0.6334375945E-007
    24    32   -0.3182630178E-007
    25    32   -0.5245230268E-007
    26    32    0.1419196354E-007
    27    32    0.5635512543E-008
    28    32   -0.9117957720E-007
    29    32   -0.6405014998E-007
    30    32   -0.8548896545E-007
    31    32   -0.5121346423E-007
    32    32    0.1000000020E+001
     1    33   -0.3560127180E-007
     2    33    0.1024950971E-007
     3    33   -0.4490772688E-007
     4    33   -0.1068409613E-006
     5    33    0.4896250645E-007
     6    33    0.1317336271E-008
     7    33   -0.3868113696E-007
     8    33   -0.4219503848E-007
     9    33   -0.6651271388E-008
    10    33    0.3048722467E-007
    11    33    0.1117097277E-006
    12    33   -0.6075750822E-007
    13    33   -0.1305951055E-006
    14    33    0.1268703812E-006
    15    33    0.1698434721E-007
    16    33   -0.3050952887E-007
    17    33    0.4691965685E-007
    18    33    0.1051374042E-007
    19    33   -0.1444236038E-006
    20    33   -0.1898700595E-007
    21    33    0.6355768529E-007
    22    33   -0.9396416204E-007
    23    33   -0.7685736947E-008
    24    33   -0.1356662469E-006
    25    33    0.3217463010E-007
    26    33    0.9356565507E-007
    27    33   -0.4758620923E-007
    28    33   -0.1885851118E-007
    29    33    0.6872542969E-007
    30    33   -0.1066700938E-006
    31    33   -0.2901890790E-007
    32    33   -0.7365943078E-007
    33    33    0.9999997935E+000
     1    34   -0.1156682596E-007
     2    34   -0.3181998169E-007
     3    34   -0.1885149798E-007
     4    34    0.5969046571E-007
     5    34   -0.4459654318E-007
     6    34   -0.2972784848E-008
     7    34    0.4850821749E-007
     8    34   -0.2748696265E-007
     9    34   -0.2007929603E-007
    10    34    0.2820604358E-007
    11    34   -0.5394396412E-007
    12    34    0.3680417999E-007
    13    34    0.7637708140E-007
    14    34   -0.1003492784E-008
    15    34    0.1779094240E-007
    16    34   -0.2168351091E-007
    17    34   -0.4394291241E-007
    18    34    0.1740635452E-008
    19    34   -0.9775710987E-008
    20    34    0.3481242860E-007
    21    34    0.1395108067E-008
    22    34    0.9974350517E-008
    23    34   -0.2530358987E-007
    24    34    0.2212642158E-007
    25    34    0.2787984878E-008
    26    34   -0.8651978362E-007
    27    34    0.3126408970E-007
    28    34    0.3471700370E-007
    29    34    0.2741585187E-008
    30    34    0.3102914028E-007
    31    34   -0.4891398989E-007
    32    34    0.5541170776E-007
    33    34    0.5110314337E-007
    34    34    0.1000000017E+001
     1    35   -0.3014748777E-008
     2    35    0.4407108953E-007
     3    35    0.2939436428E-007
     4    35   -0.2326121405E-007
     5    35   -0.1185512515E-007
     6    35   -0.7731760919E-007
     7    35   -0.4306450495E-007
     8    35    0.1569134516E-007
     9    35   -0.3910092001E-007
    10    35   -0.6972060546E-007
    11    35   -0.6198901275E-007
    12    35   -0.9147963456E-007
    13    35    0.1326621335E-007
    14    35   -0.8057236109E-007
    15    35    0.2535451737E-008
    16    35    0.1113706270E-006
    17    35    0.4150087680E-007
    18    35    0.1048531564E-007
    19    35    0.1442056601E-006
    20    35   -0.3214172205E-007
    21    35   -0.1332567296E-006
    22    35    0.8248229023E-008
    23    35    0.3592633430E-009
    24    35    0.1000250414E-006
    25    35   -0.4770472844E-007
    26    35   -0.3555155160E-007
    27    35    0.7764730617E-007
    28    35    0.1928699221E-006
    29    35    0.6457368561E-007
    30    35    0.1030170270E-006
    31    35   -0.3955175693E-007
    32    35    0.1260672804E-006
    33    35    0.1090578899E-006
    34    35    0.2942442311E-007
    35    35    0.9999998769E+000
     1    36   -0.1474922682E-007
     2    36    0.3675434009E-007
     3    36    0.3563882493E-007
     4    36   -0.4575101709E-007
     5    36    0.4850821749E-007
     6    36   -0.4213372427E-007
     7    36   -0.4453895221E-007
     8    36    0.2820604359E-007
     9    36    0.7391263799E-008
    10    36   -0.6342100689E-007
    11    36    0.7637708140E-007
    12    36   -0.5023684316E-009
    13    36   -0.1468537791E-007
    14    36   -0.5020021536E-008
    15    36   -0.4394291241E-007
    16    36   -0.1306578059E-007
    17    36   -0.3042349605E-007
    18    36   -0.3162720591E-007
    19    36    0.2674728265E-007
    20    36    0.9974350510E-008
    21    36    0.2700674393E-007
    22    36    0.1166519546E-006
    23    36    0.5179648316E-007
    24    36   -0.6760812845E-007
    25    36    0.5156927436E-007
    26    36    0.3471700369E-007
    27    36    0.1253590693E-006
    28    36   -0.6817738663E-007
    29    36   -0.9262823603E-007
    30    36   -0.7357097103E-007
    31    36    0.9353318304E-008
    32    36    0.5287985529E-008
    33    36   -0.1805075788E-007
    34    36   -0.3474036754E-007
    35    36    0.1292409109E-006
    36    36    0.1000000053E+001
     1    37   -0.3669425319E-007
     2    37   -0.3673153737E-007
     3    37    0.8589959993E-010
     4    37    0.7224104281E-007
     5    37    0.2240994404E-007
     6    37    0.5499093398E-007
     7    37    0.9329725208E-007
     8    37    0.2369522563E-008
     9    37   -0.1035909723E-008
    10    37    0.6522257887E-007
    11    37    0.2083768447E-007
    12    37    0.7501768088E-007
    13    37    0.9169680579E-007
    14    37    0.1051374041E-007
    15    37   -0.2698143348E-007
    16    37   -0.3019867739E-007
    17    37   -0.6998582918E-007
    18    37    0.5616217214E-010
    19    37   -0.7685736949E-008
    20    37    0.4559157408E-007
    21    37    0.1463659258E-007
    22    37    0.1979358489E-007
    23    37   -0.5085925064E-007
    24    37   -0.2464742747E-007
    25    37    0.6872542968E-007
    26    37   -0.2975834943E-007
    27    37    0.4257662872E-007
    28    37   -0.1203147165E-006
    29    37   -0.9491944254E-007
    30    37   -0.1036776075E-007
    31    37    0.4453235226E-007
    32    37   -0.8113237796E-007
    33    37    0.4756379257E-007
    34    37    0.7692772069E-007
    35    37    0.9174929806E-007
    36    37   -0.7156276863E-007
    37    37    0.9999997875E+000
     1    38    0.2466642234E-007
     2    38   -0.3436961662E-007
     3    38   -0.9159451654E-008
     4    38    0.2853718418E-007
     5    38    0.6161348257E-007
     6    38    0.6318659514E-007
     7    38    0.7226288713E-008
     8    38    0.3643058110E-007
     9    38    0.1280703041E-007
    10    38    0.1561468792E-008
    11    38    0.8792398083E-007
    12    38    0.4554693421E-007
    13    38   -0.3567609622E-008
    14    38    0.2367738146E-007
    15    38   -0.4166788795E-007
    16    38   -0.2241951068E-007
    17    38    0.2610567772E-008
    18    38   -0.1370215226E-007
    19    38   -0.3585052985E-007
    20    38    0.3624912127E-007
    21    38    0.1846382633E-007
    22    38   -0.6482304727E-007
    23    38   -0.7206827633E-008
    24    38   -0.8548896543E-007
    25    38    0.8075412561E-007
    26    38   -0.1246339686E-007
    27    38   -0.1806386882E-007
    28    38   -0.9975664113E-007
    29    38   -0.4299526984E-007
    30    38   -0.3281573063E-007
    31    38    0.7780787243E-007
    32    38   -0.7456821579E-007
    33    38    0.4900700044E-007
    34    38    0.8688173496E-007
    35    38    0.5219157527E-007
    36    38   -0.1245622377E-006
    37    38   -0.1723740948E-006
    38    38    0.9999998899E+000
     1    39    0.3102122018E-007
     2    39    0.4316007351E-007
     3    39   -0.4588805442E-007
     4    39   -0.1314578397E-006
     5    39    0.6257143397E-007
     6    39   -0.1565177389E-007
     7    39   -0.5777158769E-007
     8    39   -0.2952675307E-007
     9    39   -0.1291000368E-007
    10    39   -0.2068596128E-008
    11    39    0.1779789089E-006
    12    39   -0.1513825142E-007
    13    39   -0.1187365650E-006
    14    39    0.1743169598E-006
    15    39   -0.5148800539E-008
    16    39   -0.1112780986E-006
    17    39   -0.2464820709E-008
    18    39   -0.4432928171E-007
    19    39   -0.1780543418E-006
    20    39   -0.1216984906E-007
    21    39    0.1057536418E-006
    22    39   -0.4434404389E-008
    23    39    0.6532734116E-007
    24    39   -0.1166156229E-006
    25    39    0.1085353684E-006
    26    39    0.1329822763E-006
    27    39   -0.4609857957E-007
    28    39   -0.1480439451E-006
    29    39    0.5124078063E-008
    30    39   -0.1594519851E-006
    31    39   -0.4530194267E-007
    32    39   -0.7791637695E-007
    33    39   -0.2319722404E-006
    34    39    0.2684796914E-007
    35    39    0.1608735904E-006
    36    39   -0.9229368703E-007
    37    39    0.4052646701E-008
    38    39   -0.7143341399E-007
    39    39    0.9999996293E+000
     1    40    0.6359772185E-001
     2    40    0.5716113565E+000
     3    40   -0.3958024533E+000
     4    40    0.2171530612E+000
     5    40   -0.1434954957E-001
     6    40    0.1888044817E-001
     7    40    0.4950296926E+000
     8    40    0.6104509909E-002
     9    40   -0.8032040584E-002
    10    40   -0.2105970241E+000
    11    40    0.5046250083E-002
    12    40   -0.6639946719E-002
    13    40   -0.1741804035E+000
    14    40    0.1072119862E-001
    15    40   -0.4089154073E-003
    16    40   -0.1065480186E+000
    17    40    0.1410644214E-001
    18    40    0.1847738451E+000
    19    40    0.1136792916E-001
    20    40   -0.4335794410E-003
    21    40   -0.1129753867E+000
    22    40    0.1495737287E-001
    23    40    0.1959199957E+000
    24    40    0.8883251209E-002
    25    40   -0.5534301911E-003
    26    40   -0.2282864629E-002
    27    40    0.7393346962E-002
    28    40    0.7875397090E-001
    29    40   -0.9537988653E-002
    30    40   -0.1019220464E+000
    31    40    0.6267101957E-002
    32    40   -0.5073414270E-003
    33    40   -0.2352039276E-002
    34    40    0.1916044784E-003
    35    40    0.2715840257E-001
    36    40   -0.6609768076E-002
    37    40   -0.4053601604E-001
    38    40    0.5820961477E-002
    39    40    0.5382322004E-001
    40    40    0.1000010230E+001
     1    41   -0.2263232104E-001
     2    41   -0.2696568222E+000
     3    41    0.7410700974E-001
     4    41   -0.4869939748E+000
     5    41   -0.6574486118E-002
     6    41    0.8650399283E-002
     7    41    0.2268043300E+000
     8    41    0.4678409133E-002
     9    41   -0.6155584961E-002
    10    41   -0.1613848751E+000
    11    41   -0.1141294980E-001
    12    41    0.1501731722E-001
    13    41    0.3939169700E+000
    14    41    0.1785064660E-001
    15    41   -0.6808211433E-003
    16    41   -0.1774009489E+000
    17    41    0.2348701981E-001
    18    41    0.3076458031E+000
    19    41    0.9950624594E-002
    20    41   -0.3794946249E-003
    21    41   -0.9888986382E-001
    22    41    0.1309258238E-001
    23    41    0.1714932752E+000
    24    41    0.2004925328E-001
    25    41   -0.1249069383E-002
    26    41   -0.5152378182E-002
    27    41    0.1668659643E-001
    28    41    0.1777456652E+000
    29    41   -0.2152698247E-001
    30    41   -0.2300354426E+000
    31    41    0.1670184651E-001
    32    41   -0.1352070356E-002
    33    41   -0.6268172058E-002
    34    41    0.5106137753E-003
    35    41    0.7237713597E-001
    36    41   -0.1761500418E-001
    37    41   -0.1080284761E+000
    38    41    0.1551287101E-001
    39    41    0.1434388403E+000
    40    41   -0.2159239428E-004
    41    41    0.1000045597E+001
     1    42    0.6359875523E-001
     2    42    0.5716127196E+000
     3    42   -0.3958073410E+000
     4    42    0.2171424265E+000
     5    42   -0.2871982378E+000
     6    42    0.3778681805E+000
     7    42   -0.1426479735E+000
     8    42    0.1221816014E+000
     9    42   -0.1607549557E+000
    10    42    0.6068615895E-001
    11    42    0.1010421435E+000
    12    42   -0.1329413520E+000
    13    42    0.5018770667E-001
    14    42   -0.6183335009E-001
    15    42   -0.1637938655E+000
    16    42    0.7961825224E-001
    17    42   -0.8135445474E-001
    18    42   -0.4688971482E-001
    19    42   -0.6556209807E-001
    20    42   -0.1736712445E+000
    21    42    0.8441941979E-001
    22    42   -0.8626040476E-001
    23    42   -0.4971728297E-001
    24    42   -0.5185944524E-002
    25    42    0.6388005818E-001
    26    42    0.8775249299E-001
    27    42    0.4614786692E-002
    28    42    0.4358563785E-001
    29    42    0.4844178844E-001
    30    42   -0.2728694589E-001
    31    42    0.9172345092E-002
    32    42    0.5927662734E-002
    33    42   -0.4206286969E-001
    34    42   -0.2744899741E-001
    35    42   -0.2399171863E-001
    36    42   -0.1363360414E-001
    37    42   -0.3189729226E-001
    38    42    0.3118957515E-001
    39    42   -0.2569959347E-002
    40    42    0.4260965316E+000
    41    42   -0.3381764661E+000
    42    42    0.1000002923E+001
     1    43   -0.2263140377E-001
     2    43   -0.2696590813E+000
     3    43    0.7410239513E-001
     4    43   -0.4869764522E+000
     5    43   -0.1315848845E+000
     6    43    0.1731269163E+000
     7    43   -0.6535657652E-001
     8    43    0.9363412903E-001
     9    43   -0.1231949524E+000
    10    43    0.4650683703E-001
    11    43   -0.2285181326E+000
    12    43    0.3006617917E+000
    13    43   -0.1135048706E+000
    14    43   -0.1029524137E+000
    15    43   -0.2727164893E+000
    16    43    0.1325642209E+000
    17    43   -0.1354550258E+000
    18    43   -0.7807129401E-001
    19    43   -0.5738798374E-001
    20    43   -0.1520181318E+000
    21    43    0.7389435380E-001
    22    43   -0.7550563345E-001
    23    43   -0.4351878647E-001
    24    43   -0.1170462910E-001
    25    43    0.1441763189E+000
    26    43    0.1980560150E+000
    27    43    0.1041552245E-001
    28    43    0.9837204918E-001
    29    43    0.1093323744E+000
    30    43   -0.6158618638E-001
    31    43    0.2444440534E-001
    32    43    0.1579725646E-001
    33    43   -0.1120978473E+000
    34    43   -0.7315178815E-001
    35    43   -0.6393811949E-001
    36    43   -0.3633360474E-001
    37    43   -0.8500651742E-001
    38    43    0.8312043739E-001
    39    43   -0.6848981207E-002
    40    43   -0.3381763056E+000
    41    43    0.2164941884E+000
    42    43   -0.5873286445E-005
    43    43    0.1000011969E+001
